<?xml version="1.0" standalone="no"?>
<!DOCTYPE svg PUBLIC "-//W3C//DTD SVG 1.1//EN" "http://www.w3.org/Graphics/SVG/1.1/DTD/svg11.dtd" >
<svg xmlns="http://www.w3.org/2000/svg" xmlns:xlink="http://www.w3.org/1999/xlink" version="1.1">
<metadata>
Created by FontForge 20150318 at Tue Sep 15 21:39:26 2015
 By uniteet7
Copyright (c) 1990, 2002 Adobe Systems Incorporated.  All Rights Reserved. (c) 1981, 2002 Heidelberger Druckmaschinen AG. All rights reserved.
</metadata>
<defs>
<font id="HelveticaNeueLTStd-Ex" horiz-adv-x="222" >
  <font-face 
    font-family="HelveticaNeueLT Std Ext"
    font-weight="400"
    font-stretch="expanded"
    units-per-em="1000"
    panose-1="2 11 6 5 2 2 2 2 2 4"
    ascent="714"
    descent="-286"
    x-height="524"
    cap-height="714"
    bbox="-157 -220 1160 963"
    underline-thickness="50"
    underline-position="-50"
    unicode-range="U+0020-FB02"
  />
<missing-glyph horiz-adv-x="500" 
d="M0 0v700h500v-700h-500zM250 395l170 255h-340zM280 350l170 -255v510zM80 50h340l-170 255zM50 605v-510l170 255z" />
    <glyph glyph-name="fi" unicode="fi" horiz-adv-x="556" 
d="M395 0v524h100v-524h-100zM395 610v110h100v-110h-100zM105 524v78q0 70 40.5 100t120.5 30q10 0 87 -8v-78q-38 2 -56 2q-51 0 -71.5 -10t-20.5 -41v-73h148v-78h-148v-446h-100v446h-107v78h107z" />
    <glyph glyph-name="fl" unicode="fl" horiz-adv-x="556" 
d="M395 0v720h100v-720h-100zM105 524v78q0 70 40.5 100t120.5 30q10 0 87 -8v-78q-38 2 -56 2q-51 0 -71.5 -10t-20.5 -41v-73h148v-78h-148v-446h-100v446h-107v78h107z" />
    <glyph glyph-name=".notdef" horiz-adv-x="500" 
d="M0 0v700h500v-700h-500zM250 395l170 255h-340zM280 350l170 -255v510zM80 50h340l-170 255zM50 605v-510l170 255z" />
    <glyph glyph-name=".null" horiz-adv-x="0" 
 />
    <glyph glyph-name="nonmarkingreturn" horiz-adv-x="333" 
 />
    <glyph glyph-name="space" unicode=" " horiz-adv-x="334" 
 />
    <glyph glyph-name="exclam" unicode="!" horiz-adv-x="334" 
d="M105 0v116h124v-116h-124zM138 188l-27 339v187h112v-187l-27 -339h-58z" />
    <glyph glyph-name="quotedbl" unicode="&#x22;" horiz-adv-x="481" 
d="M294 445v269h84v-269h-84zM103 445v269h84v-269h-84z" />
    <glyph glyph-name="numbersign" unicode="#" horiz-adv-x="668" 
d="M383 274l20 146h-118l-20 -146h118zM194 274l20 146h-94v66h103l29 208h71l-29 -208h118l29 208h71l-29 -208h94v-66h-103l-20 -146h94v-66h-103l-29 -208h-71l29 208h-118l-29 -208h-71l29 208h-94v66h103z" />
    <glyph glyph-name="dollar" unicode="$" horiz-adv-x="668" 
d="M305 68v244q-42 7 -72.5 14t-67 22t-59.5 35t-39 52.5t-16 74.5q0 69 39.5 115.5t94.5 65.5t120 19v89h48v-89q124 -1 188 -53.5t71 -141.5h-100q-13 105 -159 111v-225q151 -25 214.5 -70.5t63.5 -137.5q0 -53 -23.5 -94.5t-63.5 -66t-88.5 -36.5t-102.5 -12v-89h-48v89
q-114 0 -190.5 59t-77.5 163h100q2 -22 9.5 -42t24.5 -42t51.5 -36.5t82.5 -17.5zM305 407v219q-73 -4 -113.5 -31.5t-40.5 -77.5q0 -45 40 -73.5t114 -36.5zM353 303v-235q87 0 132.5 32t45.5 82q0 51 -41 79.5t-137 41.5z" />
    <glyph glyph-name="percent" unicode="%" horiz-adv-x="1000" 
d="M856 179q0 63 -24.5 96t-70.5 33t-70.5 -33t-24.5 -96q0 -129 95 -129t95 129zM260 -16l397 726h84l-397 -726h-84zM334 515q0 63 -24.5 96t-70.5 33t-70.5 -33t-24.5 -96q0 -129 95 -129t95 129zM582 179q0 89 45.5 142t133.5 53t133.5 -53t45.5 -142t-45.5 -142
t-133.5 -53t-133.5 53t-45.5 142zM60 515q0 89 45.5 142t133.5 53t133.5 -53t45.5 -142t-45.5 -142t-133.5 -53t-133.5 53t-45.5 142z" />
    <glyph glyph-name="ampersand" unicode="&#x26;" horiz-adv-x="815" 
d="M698 0l-86 81q-39 -48 -107.5 -73.5t-146.5 -25.5q-77 0 -134 19.5t-88 52t-45.5 68t-14.5 73.5q0 149 186 213q-78 69 -78 145q0 73 49 117t136 44q82 0 131.5 -44.5t49.5 -110.5q0 -48 -32.5 -92.5t-105.5 -73.5l189 -175q28 46 33 111h94q-4 -97 -59 -174l168 -155
h-139zM278 558q0 -25 17.5 -50t57.5 -62q103 43 103 107q0 31 -24.5 54t-61.5 23q-45 0 -68.5 -21t-23.5 -51zM546 139l-227 213q-78 -33 -107.5 -70t-29.5 -84q0 -52 43 -92t138 -40q128 0 183 73z" />
    <glyph glyph-name="quotesingle" unicode="'" horiz-adv-x="334" 
d="M125 445v269h84v-269h-84z" />
    <glyph glyph-name="parenleft" unicode="(" horiz-adv-x="407" 
d="M377 -190h-75q-200 208 -200 452t200 452h75q-75 -78 -125 -198.5t-50 -253.5t50 -253.5t125 -198.5z" />
    <glyph glyph-name="parenright" unicode=")" horiz-adv-x="407" 
d="M105 -190h-75q75 78 125 198.5t50 253.5t-50 253.5t-125 198.5h75q200 -208 200 -452t-200 -452z" />
    <glyph glyph-name="asterisk" unicode="*" horiz-adv-x="463" 
d="M174 520l-128 50l28 66l121 -49v127h72v-127l124 49l26 -66l-129 -50l97 -97l-54 -45l-100 103l-98 -103l-51 45z" />
    <glyph glyph-name="plus" unicode="+" horiz-adv-x="600" 
d="M258 295v211h84v-211h211v-84h-211v-211h-84v211h-211v84h211z" />
    <glyph glyph-name="comma" unicode="," horiz-adv-x="334" 
d="M105 0v116h124v-102q0 -64 -30.5 -110t-93.5 -57v49q31 9 45 32t15 72h-60z" />
    <glyph glyph-name="hyphen" unicode="-" horiz-adv-x="481" 
d="M65 226v104h351v-104h-351z" />
    <glyph glyph-name="period" unicode="." horiz-adv-x="334" 
d="M105 0v116h124v-116h-124z" />
    <glyph glyph-name="slash" unicode="/" horiz-adv-x="406" 
d="M0 -18l312 750h94l-312 -750h-94z" />
    <glyph glyph-name="zero" unicode="0" horiz-adv-x="668" 
d="M45 347q0 78 14.5 141t47 114.5t90 79.5t137.5 28t137.5 -28t90 -79.5t47 -114.5t14.5 -141t-14.5 -141t-47 -114.5t-90 -79.5t-137.5 -28t-137.5 28t-90 79.5t-47 114.5t-14.5 141zM517 347q0 33 -2.5 62t-13 71.5t-29 72t-54 51.5t-84.5 22t-84.5 -22t-54 -51.5
t-29 -72t-13 -71.5t-2.5 -62t2.5 -62t13 -71.5t29 -72t54 -51.5t84.5 -22t84.5 22t54 51.5t29 72t13 71.5t2.5 62z" />
    <glyph glyph-name="one" unicode="1" horiz-adv-x="444" 
d="M199 0v505h-209v78h24q197 0 208 131h83v-714h-106z" />
    <glyph glyph-name="two" unicode="2" horiz-adv-x="668" 
d="M146 459h-100q0 115 68.5 183t206.5 68q130 0 196 -61.5t66 -161.5q0 -68 -35.5 -118t-90 -81t-111.5 -56.5t-109.5 -61t-74.5 -78.5h421v-92h-550q4 58 25 106t53 79t71.5 58.5t80 46t79 40.5t68.5 42t48.5 50t18.5 66q0 71 -42 104.5t-108 33.5q-90 0 -134.5 -44.5
t-46.5 -122.5z" />
    <glyph glyph-name="three" unicode="3" horiz-adv-x="668" 
d="M256 323v87q13 -1 67 -1q66 0 101 27t35 75q0 61 -43.5 88t-108.5 27q-152 0 -160 -146h-100q6 115 76.5 172.5t186.5 57.5q126 0 190.5 -55.5t64.5 -135.5q0 -51 -26.5 -90.5t-77.5 -52.5v-2q60 -11 97.5 -56t37.5 -111q0 -97 -69 -160t-203 -63q-295 0 -295 236h100
q4 -84 52 -118t134 -34q83 0 129 36t46 96q0 59 -48 92t-127 33q-21 0 -39 -1t-20 -1z" />
    <glyph glyph-name="four" unicode="4" horiz-adv-x="668" 
d="M401 253v321h-2l-263 -321h265zM401 0v169h-365v92l377 453h88v-461h122v-84h-122v-169h-100z" />
    <glyph glyph-name="five" unicode="5" horiz-adv-x="668" 
d="M66 319l64 375h427v-92h-352l-34 -189q74 50 171 50q48 0 92 -11.5t85 -36.5t65.5 -72.5t24.5 -111.5q0 -112 -78.5 -179.5t-213.5 -67.5q-119 0 -193.5 57.5t-79.5 144.5h103q16 -64 57 -91t121 -27q77 0 127.5 36.5t50.5 122.5q0 76 -48.5 114t-126.5 38
q-112 0 -166 -66z" />
    <glyph glyph-name="six" unicode="6" horiz-adv-x="668" 
d="M522 224q0 68 -44.5 112t-130.5 44q-87 0 -131.5 -44t-44.5 -112t44.5 -112t131.5 -44q86 0 130.5 44t44.5 112zM604 530h-100q-8 46 -46.5 71t-92.5 25q-96 0 -149.5 -54.5t-61.5 -199.5h2q22 38 77.5 65t126.5 27q49 0 93.5 -12t85 -38t65 -74.5t24.5 -113.5
q0 -42 -15.5 -82.5t-47 -77.5t-87 -59.5t-127.5 -22.5q-297 0 -297 349q0 75 13 135.5t32.5 99t49 66.5t56 42.5t61 22.5t56 9.5t48.5 1.5q35 0 70 -8t71 -27t61 -56.5t32 -88.5z" />
    <glyph glyph-name="seven" unicode="7" horiz-adv-x="593" 
d="M17 596v98h539v-88q-118 -148 -190 -291t-110 -315h-111q40 162 122.5 317.5t189.5 278.5h-440z" />
    <glyph glyph-name="eight" unicode="8" horiz-adv-x="668" 
d="M47 206q0 41 16.5 74.5t41 53t46.5 30.5t40 15v2q-112 41 -112 146q0 87 67.5 135t188.5 48t188 -48t67 -135q0 -105 -111 -146v-2q64 -11 103 -57t39 -116q0 -29 -7 -57t-26.5 -59t-50.5 -53.5t-83.5 -37.5t-119.5 -15t-119.5 15t-83.5 37.5t-50.5 53.5t-26.5 59t-7 57z
M484 522q0 42 -38 73t-111 31t-111.5 -31t-38.5 -73q0 -43 38.5 -73.5t111.5 -30.5t111 30.5t38 73.5zM515 201q0 58 -44.5 95.5t-136.5 37.5t-136.5 -37.5t-44.5 -95.5t44.5 -95.5t136.5 -37.5t136.5 37.5t44.5 95.5z" />
    <glyph glyph-name="nine" unicode="9" horiz-adv-x="668" 
d="M497 470q0 68 -44.5 112t-131.5 44q-86 0 -130.5 -44t-44.5 -112t44.5 -112t130.5 -44q87 0 131.5 44t44.5 112zM64 164h100q8 -46 46.5 -71t92.5 -25q96 0 149.5 54.5t61.5 199.5h-2q-22 -38 -77.5 -65t-126.5 -27q-49 0 -93.5 12t-85 38t-65 74.5t-24.5 113.5
q0 42 15.5 82.5t47 77.5t87 59.5t127.5 22.5q297 0 297 -349q0 -75 -13 -135.5t-32.5 -99t-49 -66.5t-56 -42.5t-61 -22.5t-56 -9.5t-48.5 -1.5q-35 0 -70 8t-71 27t-61 56.5t-32 88.5z" />
    <glyph glyph-name="colon" unicode=":" horiz-adv-x="334" 
d="M105 399v116h124v-116h-124zM105 0v116h124v-116h-124z" />
    <glyph glyph-name="semicolon" unicode=";" horiz-adv-x="334" 
d="M105 0v116h124v-102q0 -64 -30.5 -110t-93.5 -57v49q31 9 45 32t15 72h-60zM105 399v116h124v-116h-124z" />
    <glyph glyph-name="less" unicode="&#x3c;" horiz-adv-x="600" 
d="M47 217v72l506 226v-84l-403 -178l403 -178v-84z" />
    <glyph glyph-name="equal" unicode="=" horiz-adv-x="600" 
d="M47 315v84h506v-84h-506zM47 107v84h506v-84h-506z" />
    <glyph glyph-name="greater" unicode="&#x3e;" horiz-adv-x="600" 
d="M450 253l-403 178v84l506 -226v-72l-506 -226v84z" />
    <glyph glyph-name="question" unicode="?" horiz-adv-x="668" 
d="M158 492h-100q3 69 30 118.5t69 74.5t84.5 36t89.5 11q108 0 180 -56.5t72 -159.5q0 -51 -23.5 -91t-57.5 -66.5t-68 -50t-57.5 -54t-23.5 -66.5h-94q0 46 16 82.5t40.5 58t52.5 43t52.5 38.5t40.5 45t16 62q0 66 -42 98.5t-108 32.5q-74 0 -120 -41.5t-49 -114.5zM244 0
v116h124v-116h-124z" />
    <glyph glyph-name="at" unicode="@" horiz-adv-x="800" 
d="M501 398q0 39 -24 68t-58 29q-59 0 -101.5 -61.5t-42.5 -126.5q0 -44 23.5 -72t60.5 -28q58 0 100 63.5t42 127.5zM531 492l19 59h72l-76 -273q-11 -44 -11 -49q0 -23 23 -23q52 0 96.5 63t44.5 142q0 119 -81.5 190t-201.5 71q-136 0 -222.5 -92t-86.5 -226t90.5 -223
t227.5 -89q66 0 128 30t105 80h73q-49 -80 -131.5 -125t-178.5 -45q-163 0 -274.5 108.5t-111.5 267.5q0 157 111.5 265.5t269.5 108.5q144 0 246.5 -87t102.5 -221q0 -54 -17.5 -102t-44.5 -81.5t-60.5 -58t-65.5 -36t-59 -11.5q-25 0 -42.5 15t-18.5 44h-2
q-53 -59 -116 -59t-105.5 47.5t-42.5 115.5q0 104 63.5 186.5t160.5 82.5q79 0 116 -75z" />
    <glyph glyph-name="A" unicode="A" horiz-adv-x="759" 
d="M512 300l-137 316l-134 -316h271zM642 0l-91 208h-350l-91 -208h-114l323 714h121l323 -714h-121z" />
    <glyph glyph-name="B" unicode="B" horiz-adv-x="778" 
d="M77 0v714h397q220 0 220 -179q0 -113 -104 -151v-2q135 -31 135 -176q0 -84 -58.5 -145t-167.5 -61h-422zM183 419h289q56 0 86 27.5t30 72.5q0 103 -122 103h-283v-203zM183 92h287q149 0 149 121q0 49 -32.5 81.5t-107.5 32.5h-296v-235z" />
    <glyph glyph-name="C" unicode="C" horiz-adv-x="815" 
d="M770 457h-106q-13 80 -75 131.5t-169 51.5q-130 0 -203 -74.5t-73 -217.5q0 -53 15 -100t45.5 -87t84.5 -63.5t125 -23.5q98 0 163 49t87 150h106q-13 -123 -111 -207t-246 -84q-56 0 -108 12t-101.5 41t-85.5 71t-58 107t-22 146q0 163 98.5 268t275.5 105
q59 0 115 -13.5t110 -43t90.5 -86t42.5 -132.5z" />
    <glyph glyph-name="D" unicode="D" horiz-adv-x="796" 
d="M77 0v714h362q156 0 234 -93t78 -254q0 -77 -17.5 -141.5t-53 -116t-95.5 -80.5t-140 -29h-368zM183 92h257q205 0 205 273q0 257 -225 257h-237v-530z" />
    <glyph glyph-name="E" unicode="E" horiz-adv-x="704" 
d="M77 0v714h574v-92h-468v-207h454v-92h-454v-231h478v-92h-584z" />
    <glyph glyph-name="F" unicode="F" horiz-adv-x="648" 
d="M77 0v714h553v-92h-447v-211h426v-92h-426v-319h-106z" />
    <glyph glyph-name="G" unicode="G" horiz-adv-x="870" 
d="M468 293v92h328v-385h-76l-18 102q-103 -120 -274 -120q-102 0 -178.5 34t-118 89.5t-61 116t-19.5 123.5q0 99 32 176t86 121.5t119 67t137 22.5q303 0 359 -243h-112q-50 151 -242 151q-134 0 -203.5 -81.5t-69.5 -204.5q0 -73 22 -128.5t61.5 -87.5t88 -48t106.5 -16
q114 0 186.5 61t80.5 158h-234z" />
    <glyph glyph-name="H" unicode="H" horiz-adv-x="852" 
d="M669 0v336h-486v-336h-106v714h106v-286h486v286h106v-714h-106z" />
    <glyph glyph-name="I" unicode="I" horiz-adv-x="278" 
d="M86 0v714h106v-714h-106z" />
    <glyph glyph-name="J" unicode="J" horiz-adv-x="574" 
d="M23 243h100v-34q0 -71 36.5 -107t104.5 -36q64 0 98 36.5t34 105.5v506h106v-484q0 -248 -236 -248q-49 0 -88 10t-64 25t-43 39t-27 44.5t-14 50.5t-6 48t-1 44z" />
    <glyph glyph-name="K" unicode="K" horiz-adv-x="759" 
d="M609 0l-292 348l-130 -115v-233h-106v714h106v-359l399 359h150l-339 -296l358 -418h-146z" />
    <glyph glyph-name="L" unicode="L" horiz-adv-x="630" 
d="M81 0v714h106v-622h434v-92h-540z" />
    <glyph glyph-name="M" unicode="M" horiz-adv-x="1019" 
d="M509 122l286 592h147v-714h-106v592h-2l-278 -592h-94l-277 580h-2v-580h-106v714h149z" />
    <glyph glyph-name="N" unicode="N" horiz-adv-x="852" 
d="M648 0l-459 568h-2v-568h-106v714h123l459 -568h2v568h106v-714h-123z" />
    <glyph glyph-name="O" unicode="O" horiz-adv-x="870" 
d="M38 357q0 72 22.5 136.5t68 119t124.5 87t182 32.5t182 -32.5t124.5 -87t68 -119t22.5 -136.5t-22.5 -136.5t-68 -119t-124.5 -87t-182 -32.5t-182 32.5t-124.5 87t-68 119t-22.5 136.5zM726 357q0 136 -81.5 209.5t-209.5 73.5t-209.5 -73.5t-81.5 -209.5t81.5 -209.5
t209.5 -73.5t209.5 73.5t81.5 209.5z" />
    <glyph glyph-name="P" unicode="P" horiz-adv-x="722" 
d="M81 0v714h368q117 0 178 -52.5t61 -152.5q0 -102 -60.5 -162.5t-171.5 -60.5h-269v-286h-106zM187 378h255q140 0 140 129q0 53 -31 84t-90 31h-274v-244z" />
    <glyph glyph-name="Q" unicode="Q" horiz-adv-x="870" 
d="M745 -77l-115 98q-83 -39 -195 -39q-103 0 -182 32.5t-124.5 87t-68 119t-22.5 136.5t22.5 136.5t68 119t124.5 87t182 32.5t182 -32.5t124.5 -87t68 -119t22.5 -136.5q0 -84 -31 -159.5t-93 -127.5l93 -78zM547 91l-72 61l55 67l100 -84q96 76 96 222q0 136 -81.5 209.5
t-209.5 73.5t-209.5 -73.5t-81.5 -209.5t81.5 -209.5t209.5 -73.5q62 0 112 17z" />
    <glyph glyph-name="R" unicode="R" horiz-adv-x="759" 
d="M81 0v714h442q99 0 147 -56t48 -134q0 -66 -31 -111.5t-89 -64.5v-2q47 -7 74 -47.5t30 -104.5q5 -103 10.5 -138.5t23.5 -55.5h-112q-11 13 -14.5 35.5t-6.5 77.5v7.5t-0.5 7t-0.5 8.5q-5 93 -37.5 130t-100.5 37h-277v-303h-106zM187 395h296q70 0 99.5 33.5t29.5 79.5
q0 53 -32 83.5t-94 30.5h-299v-227z" />
    <glyph glyph-name="S" unicode="S" horiz-adv-x="667" 
d="M16 235h106q1 -46 21 -79t54.5 -50t72.5 -24.5t82 -7.5q87 0 140 32t53 89q0 46 -33.5 70.5t-99.5 35.5l-162 27q-39 6 -70 16t-66.5 30t-55.5 56t-20 85q0 99 75.5 158t210.5 59q57 0 107 -11.5t94.5 -36t71.5 -69.5t31 -107h-106q-4 25 -13.5 45t-31 41.5t-64 33.5
t-103.5 12q-67 0 -116.5 -29.5t-49.5 -87.5q0 -74 117 -94l175 -30q27 -5 45 -9t54 -18t58 -31.5t40 -50.5t18 -74q0 -65 -27 -112.5t-73 -73t-97.5 -37t-109.5 -11.5q-65 0 -120 12.5t-103.5 40t-76.5 78.5t-28 122z" />
    <glyph glyph-name="T" unicode="T" horiz-adv-x="648" 
d="M271 0v622h-270v92h646v-92h-270v-622h-106z" />
    <glyph glyph-name="U" unicode="U" horiz-adv-x="796" 
d="M75 270v444h106v-457q0 -93 57.5 -138t159.5 -45t159.5 45t57.5 138v457h106v-444q0 -288 -323 -288t-323 288z" />
    <glyph glyph-name="V" unicode="V" horiz-adv-x="722" 
d="M366 110l253 604h114l-313 -714h-113l-318 714h120z" />
    <glyph glyph-name="W" unicode="W" horiz-adv-x="1093" 
d="M742 0l-198 592h-2l-197 -592h-117l-235 714h115l183 -580h2l191 580h126l196 -580h2l182 580h110l-242 -714h-116z" />
    <glyph glyph-name="X" unicode="X" horiz-adv-x="704" 
d="M354 439l210 275h131l-275 -348l283 -366h-139l-216 289l-215 -289h-132l282 366l-268 348h135z" />
    <glyph glyph-name="Y" unicode="Y" horiz-adv-x="722" 
d="M362 389l237 325h129l-315 -415v-299h-106v294l-313 420h135z" />
    <glyph glyph-name="Z" unicode="Z" horiz-adv-x="685" 
d="M14 0v95l510 527h-474v92h613v-92l-512 -530h520v-92h-657z" />
    <glyph glyph-name="bracketleft" unicode="[" horiz-adv-x="407" 
d="M117 -190v904h229v-78h-135v-748h135v-78h-229z" />
    <glyph glyph-name="backslash" unicode="\" horiz-adv-x="406" 
d="M312 -18l-312 750h94l312 -750h-94z" />
    <glyph glyph-name="bracketright" unicode="]" horiz-adv-x="407" 
d="M196 -112v748h-135v78h229v-904h-229v78h135z" />
    <glyph glyph-name="asciicircum" unicode="^" horiz-adv-x="600" 
d="M459 280l-159 330l-159 -330h-84l204 414h76l206 -414h-84z" />
    <glyph glyph-name="underscore" unicode="_" horiz-adv-x="500" 
d="M0 -125v50h500v-50h-500z" />
    <glyph glyph-name="grave" unicode="`" 
d="M91 601l-131 140h125l86 -140h-80z" />
    <glyph glyph-name="a" unicode="a" horiz-adv-x="648" 
d="M154 360h-94q10 96 74.5 139t185.5 43q45 0 83.5 -6.5t76 -22t59.5 -46.5t22 -74v-282q0 -45 45 -45q15 0 35 4v-70q-36 -6 -78 -6q-41 0 -63 15.5t-27 57.5q-29 -39 -92.5 -62t-130.5 -23q-62 0 -106 14.5t-66 39.5t-31.5 50.5t-9.5 53.5q0 74 50.5 112t174.5 51l114 12
q47 5 69 17.5t22 45.5q0 34 -22 54t-53 26t-76 6q-158 0 -162 -104zM467 207v67q-19 -21 -98 -31l-113 -14q-61 -8 -90 -27t-29 -59q0 -37 33.5 -60t88.5 -23q87 0 147.5 41.5t60.5 105.5z" />
    <glyph glyph-name="b" unicode="b" horiz-adv-x="685" 
d="M61 0v720h100v-275h2q29 45 83 68t116 23q123 0 204 -74.5t81 -202.5t-81 -202.5t-204 -74.5q-60 0 -115.5 22.5t-83.5 62.5h-2v-67h-100zM541 259q0 89 -52 141t-140 52t-141 -52t-53 -141q0 -81 49 -137t145 -56q95 0 143.5 56t48.5 137z" />
    <glyph glyph-name="c" unicode="c" horiz-adv-x="630" 
d="M490 192h106q-30 -113 -98 -161.5t-175 -48.5q-60 0 -109 16t-81.5 42.5t-54 62.5t-31 75t-9.5 81q0 122 74 202.5t210 80.5q109 0 183 -49.5t89 -143.5h-106q-9 52 -49.5 80.5t-109.5 28.5q-92 0 -138.5 -53.5t-46.5 -142.5t46.5 -142.5t138.5 -53.5q67 0 105.5 30.5
t55.5 95.5z" />
    <glyph glyph-name="d" unicode="d" horiz-adv-x="685" 
d="M524 0v67h-2q-28 -40 -83.5 -62.5t-115.5 -22.5q-123 0 -204 74.5t-81 202.5t81 202.5t204 74.5q61 0 115.5 -22t83.5 -63h2v269h100v-720h-100zM144 259q0 -81 48.5 -137t143.5 -56q96 0 145 56t49 137q0 89 -53 141t-141 52t-140 -52t-52 -141z" />
    <glyph glyph-name="e" unicode="e" horiz-adv-x="667" 
d="M626 232h-482q6 -77 63.5 -121.5t129.5 -44.5q52 0 99 21.5t70 71.5h106q-35 -89 -110 -133t-160 -44q-146 0 -225 80t-79 200t79 200t225 80q54 0 103 -16.5t90.5 -50t66 -93t24.5 -137.5v-13zM147 310h373q-11 70 -61 109t-122 39t-125.5 -40t-64.5 -108z" />
    <glyph glyph-name="f" unicode="f" horiz-adv-x="333" 
d="M92 524v78q0 70 40.5 100t120.5 30q10 0 87 -8v-78q-38 2 -56 2q-51 0 -71.5 -10t-20.5 -41v-73h148v-78h-148v-446h-100v446h-107v78h107z" />
    <glyph glyph-name="g" unicode="g" horiz-adv-x="685" 
d="M530 447v77h100v-480q0 -141 -71.5 -202.5t-233.5 -61.5q-39 0 -69.5 3t-65.5 13t-60 27t-44 47.5t-25 72.5h100q13 -48 55 -66.5t119 -18.5q100 0 147.5 44t47.5 114v76h-2q-67 -97 -203 -97q-55 0 -104.5 15.5t-91 46.5t-66.5 84.5t-25 123.5t25 124t66.5 85t91 46.5
t103.5 15.5q67 0 121.5 -22.5t82.5 -66.5h2zM530 264q0 83 -52 135.5t-141 52.5q-90 0 -141.5 -52.5t-51.5 -135.5t51.5 -134t141.5 -51q89 0 141 51.5t52 133.5z" />
    <glyph glyph-name="h" unicode="h" horiz-adv-x="649" 
d="M61 0v720h100v-275h2q62 97 205 97q100 0 160 -45.5t60 -139.5v-357h-100v337q0 121 -155 121q-72 0 -122 -41t-50 -115v-302h-100z" />
    <glyph glyph-name="i" unicode="i" 
d="M61 0v524h100v-524h-100zM61 610v110h100v-110h-100z" />
    <glyph glyph-name="j" unicode="j" 
d="M-52 -200v84q13 -2 37 -2q40 0 58 15t18 48v579h100v-556q0 -93 -36 -131.5t-130 -38.5q-13 0 -47 2zM61 610v110h100v-110h-100z" />
    <glyph glyph-name="k" unicode="k" horiz-adv-x="593" 
d="M169 300l266 224h152l-246 -197l265 -327h-136l-209 262l-92 -73v-189h-100v720h100v-420z" />
    <glyph glyph-name="l" unicode="l" 
d="M61 0v720h100v-720h-100z" />
    <glyph glyph-name="m" unicode="m" horiz-adv-x="1018" 
d="M857 0v333q0 67 -35.5 96t-90.5 29q-74 0 -123 -35.5t-49 -105.5v-317h-100v333q0 67 -35.5 96t-90.5 29q-72 0 -122 -41t-50 -115v-302h-100v524h100v-79h2q62 97 205 97q119 0 178 -97q78 97 212 97q19 0 41 -3.5t51.5 -15.5t52 -31.5t38.5 -54.5t16 -80v-357h-100z
" />
    <glyph glyph-name="n" unicode="n" horiz-adv-x="649" 
d="M61 0v524h100v-79h2q62 97 205 97q100 0 160 -45.5t60 -139.5v-357h-100v337q0 121 -155 121q-72 0 -122 -41t-50 -115v-302h-100z" />
    <glyph glyph-name="o" unicode="o" horiz-adv-x="684" 
d="M38 262q0 120 79 200t225 80t225 -80t79 -200t-79 -200t-225 -80t-225 80t-79 200zM540 262q0 81 -48.5 138.5t-149.5 57.5t-149.5 -57.5t-48.5 -138.5t48.5 -138.5t149.5 -57.5t149.5 57.5t48.5 138.5z" />
    <glyph glyph-name="p" unicode="p" horiz-adv-x="685" 
d="M61 -202v726h100v-73h2q28 40 83.5 62.5t115.5 22.5q123 0 204 -74.5t81 -202.5t-81 -202.5t-204 -74.5q-61 0 -115.5 22t-83.5 63h-2v-269h-100zM541 259q0 81 -48.5 137t-143.5 56q-96 0 -145 -56t-49 -137q0 -89 53 -141t141 -52t140 52t52 141z" />
    <glyph glyph-name="q" unicode="q" horiz-adv-x="685" 
d="M524 451v73h100v-726h-100v275h-2q-29 -45 -83 -68t-116 -23q-123 0 -204 74.5t-81 202.5t81 202.5t204 74.5q60 0 115.5 -22.5t83.5 -62.5h2zM144 259q0 -89 52 -141t140 -52t141 52t53 141q0 81 -49 137t-145 56q-95 0 -143.5 -56t-48.5 -137z" />
    <glyph glyph-name="r" unicode="r" horiz-adv-x="407" 
d="M61 0v524h100v-96h2q65 114 180 114q34 0 57 -6v-108q-42 10 -71 10q-77 0 -122.5 -44.5t-45.5 -127.5v-266h-100z" />
    <glyph glyph-name="s" unicode="s" horiz-adv-x="593" 
d="M31 165h100q0 -42 39 -73.5t126 -31.5q88 0 124 24t36 58q0 30 -21 46t-78 24l-165 22q-60 8 -101 44.5t-41 94.5q0 79 64 124t175 45q123 0 186 -47.5t70 -128.5h-100q-2 42 -42.5 70t-114.5 28q-57 0 -97.5 -19t-40.5 -61q0 -28 18 -43t69 -22l142 -19
q97 -13 140 -47.5t43 -91.5q0 -89 -69.5 -134t-193.5 -45q-255 0 -268 183z" />
    <glyph glyph-name="t" unicode="t" horiz-adv-x="370" 
d="M105 524v161h100v-161h150v-78h-150v-323q0 -57 81 -57q29 0 69 7v-84q-40 -7 -112 -7q-138 0 -138 124v340h-108v78h108z" />
    <glyph glyph-name="u" unicode="u" horiz-adv-x="649" 
d="M588 524v-524h-100v79h-2q-62 -97 -205 -97q-100 0 -160 45.5t-60 139.5v357h100v-337q0 -121 155 -121q72 0 122 41t50 115v302h100z" />
    <glyph glyph-name="v" unicode="v" horiz-adv-x="574" 
d="M290 110l177 414h112l-236 -524h-110l-238 524h115z" />
    <glyph glyph-name="w" unicode="w" horiz-adv-x="907" 
d="M642 124l150 400h106l-207 -524h-109l-131 400h-2l-131 -400h-106l-203 524h111l145 -400h2l130 400h110l133 -400h2z" />
    <glyph glyph-name="x" unicode="x" horiz-adv-x="593" 
d="M297 344l152 180h133l-220 -253l236 -271h-140l-165 199l-166 -199h-132l233 271l-216 253h136z" />
    <glyph glyph-name="y" unicode="y" horiz-adv-x="574" 
d="M290 110l177 414h112l-274 -614q-36 -81 -73 -105.5t-109 -24.5q-24 0 -76 4v84q4 0 24 -2t34 -2q46 0 65.5 14.5t43.5 65.5l23 48l-242 532h115z" />
    <glyph glyph-name="z" unicode="z" horiz-adv-x="593" 
d="M27 0v82l386 358h-367v84h505v-78l-391 -362h406v-84h-539z" />
    <glyph glyph-name="braceleft" unicode="{" horiz-adv-x="333" 
d="M47 229v66q33 2 58 35t25 83v170q0 60 33.5 95.5t74.5 35.5h72v-60h-48q-48 0 -48 -86v-171q0 -61 -30 -94t-59 -40v-2q29 -7 59 -40t30 -94v-171q0 -86 48 -86h48v-60h-72q-41 0 -74.5 35.5t-33.5 95.5v170q0 50 -25 83t-58 35z" />
    <glyph glyph-name="bar" unicode="|" 
d="M69 -18v750h84v-750h-84z" />
    <glyph glyph-name="braceright" unicode="}" horiz-adv-x="333" 
d="M23 -190v60h48q48 0 48 86v171q0 61 30 94t59 40v2q-29 7 -59 40t-30 94v171q0 86 -48 86h-48v60h72q41 0 74.5 -35.5t33.5 -95.5v-170q0 -50 25 -83t58 -35v-66q-33 -2 -58 -35t-25 -83v-170q0 -60 -33.5 -95.5t-74.5 -35.5h-72z" />
    <glyph glyph-name="asciitilde" unicode="~" horiz-adv-x="600" 
d="M105 176l-36 63q45 86 125 86q42 0 116 -36q76 -36 97 -36q44 0 88 77l36 -63q-45 -86 -125 -86q-42 0 -116 36q-76 36 -97 36q-44 0 -88 -77z" />
    <glyph glyph-name="uni00A0" unicode="&#xa0;" horiz-adv-x="334" 
 />
    <glyph glyph-name="exclamdown" unicode="&#xa1;" horiz-adv-x="334" 
d="M105 408v116h124v-116h-124zM111 -190v187l27 339h58l27 -339v-187h-112z" />
    <glyph glyph-name="cent" unicode="&#xa2;" horiz-adv-x="668" 
d="M311 68v389q-75 -9 -112.5 -61.5t-37.5 -133.5t37.5 -133t112.5 -61zM311 -109v93q-67 4 -118 29t-80 64.5t-43.5 85t-14.5 96.5q0 116 66.5 194.5t189.5 87.5v92h54v-92q100 -5 165.5 -54t80.5 -138h-106q-18 101 -140 108v-389q113 7 142 124h106
q-28 -106 -89.5 -154.5t-158.5 -53.5v-93h-54z" />
    <glyph glyph-name="sterling" unicode="&#xa3;" horiz-adv-x="668" 
d="M42 311v60h63q-32 48 -32 119q0 88 72 154t208 66q130 0 201.5 -61.5t71.5 -169.5h-106q-3 66 -46.5 106.5t-127.5 40.5q-77 0 -122 -41.5t-45 -109.5q0 -57 32 -104h211v-60h-188q18 -38 18 -75q0 -38 -23 -79t-62 -65l2 -2q47 18 95 18q36 0 107 -16t87 -16
q67 0 140 51l28 -88q-74 -55 -164 -55q-26 0 -106 20t-127 20q-96 0 -141 -40l-46 83q55 32 82.5 70.5t27.5 90.5q0 40 -24 83h-86z" />
    <glyph glyph-name="currency" unicode="&#xa4;" horiz-adv-x="668" 
d="M498 347q0 71 -48 120.5t-116 49.5t-116 -49.5t-48 -120.5t48 -120.5t116 -49.5t116 49.5t48 120.5zM82 142l55 55q-51 67 -51 150q0 86 51 150l-55 55l48 48l55 -55q66 50 149 50t149 -50l55 55l48 -48l-55 -56q51 -65 51 -149t-51 -149l55 -56l-48 -48l-56 56
q-63 -51 -148 -51q-84 0 -149 51l-55 -56z" />
    <glyph glyph-name="yen" unicode="&#xa5;" horiz-adv-x="668" 
d="M336 369l194 325h129l-224 -343h142v-60h-181l-9 -14v-73h190v-60h-190v-144h-106v144h-190v60h190v73l-9 14h-181v60h142l-222 343h135z" />
    <glyph glyph-name="brokenbar" unicode="&#xa6;" 
d="M69 -18v280h84v-280h-84zM69 452v280h84v-280h-84z" />
    <glyph glyph-name="section" unicode="&#xa7;" horiz-adv-x="668" 
d="M87 5h100q11 -111 152 -111q64 0 98 22t34 61q0 29 -20 49.5t-70 40.5l-176 71q-97 39 -129.5 79.5t-32.5 103.5q0 41 28 80t78 55q-49 35 -49 105q0 80 65 125.5t165 45.5t165 -48t65 -137h-100q-6 101 -135 101q-125 0 -125 -80q0 -47 59 -71l235 -95q131 -53 131 -157
q0 -103 -105 -148q51 -35 51 -110q0 -77 -61.5 -127t-168.5 -50q-73 0 -126 19t-79 50t-37.5 62t-11.5 64zM265 216l197 -80q32 10 50.5 33t18.5 53q0 32 -22.5 55.5t-73.5 44.5l-232 94q-30 -11 -48 -34.5t-18 -55.5q0 -31 26.5 -55.5t101.5 -54.5z" />
    <glyph glyph-name="dieresis" unicode="&#xa8;" 
d="M-59 610v104h100v-104h-100zM181 610v104h100v-104h-100z" />
    <glyph glyph-name="copyright" unicode="&#xa9;" horiz-adv-x="800" 
d="M25 357q0 164 111 269.5t264 105.5t264 -105.5t111 -269.5t-111 -269.5t-264 -105.5t-264 105.5t-111 269.5zM691 357q0 127 -84.5 212t-206.5 85q-123 0 -207 -85t-84 -212t84 -212t207 -85q122 0 206.5 85t84.5 212zM511 292h84q-13 -74 -63 -116.5t-118 -42.5
q-94 0 -152.5 64.5t-58.5 161.5q0 99 56.5 162.5t151.5 63.5q71 0 121 -41t60 -114h-81q-8 35 -35.5 56t-66.5 21q-58 0 -90 -41t-32 -107q0 -63 34.5 -105.5t91.5 -42.5q39 0 66 21.5t32 59.5z" />
    <glyph glyph-name="ordfeminine" unicode="&#xaa;" horiz-adv-x="421" 
d="M99 599h-66q6 60 48 85.5t123 25.5q160 0 160 -87v-162q0 -24 29 -24q12 0 18 2v-45q-11 -1 -29.5 -3t-21.5 -2q-52 0 -59 42q-19 -25 -60 -39t-85 -14q-77 0 -107.5 28.5t-30.5 69.5q0 43 32.5 67t109.5 31l76 7q29 2 42.5 9t13.5 22q0 44 -90 44q-100 0 -103 -57z
M292 520v28h-2q-7 -11 -66 -20l-64 -9q-70 -10 -70 -43q0 -19 21 -31.5t53 -12.5q52 0 90 24.5t38 63.5z" />
    <glyph glyph-name="guillemotleft" unicode="&#xab;" horiz-adv-x="556" 
d="M299 226v104l180 133v-101l-119 -84l119 -84v-101zM77 226v104l180 133v-101l-119 -84l119 -84v-101z" />
    <glyph glyph-name="logicalnot" unicode="&#xac;" horiz-adv-x="600" 
d="M469 107v208h-422v84h506v-292h-84z" />
    <glyph glyph-name="uni00AD" unicode="&#xad;" horiz-adv-x="481" 
d="M65 226v104h351v-104h-351z" />
    <glyph glyph-name="registered" unicode="&#xae;" horiz-adv-x="800" 
d="M25 357q0 164 111 269.5t264 105.5t264 -105.5t111 -269.5t-111 -269.5t-264 -105.5t-264 105.5t-111 269.5zM691 357q0 127 -84.5 212t-206.5 85q-123 0 -207 -85t-84 -212t84 -212t207 -85q122 0 206.5 85t84.5 212zM501 143l-112 185h-67v-185h-72v428h167
q81 0 121 -29.5t40 -93.5q0 -105 -116 -117l123 -188h-84zM322 388h77q24 0 39 2t31 8t23.5 19.5t7.5 35.5q0 58 -95 58h-83v-123z" />
    <glyph glyph-name="macron" unicode="&#xaf;" 
d="M-85 629v78h392v-78h-392z" />
    <glyph glyph-name="degree" unicode="&#xb0;" horiz-adv-x="400" 
d="M57 567q0 59 42 101t101 42t101 -42t42 -101t-42 -101t-101 -42t-101 42t-42 101zM289 567q0 33 -28 61t-61 28t-61 -28t-28 -61t28 -61t61 -28t61 28t28 61z" />
    <glyph glyph-name="plusminus" unicode="&#xb1;" horiz-adv-x="600" 
d="M258 354v152h84v-152h211v-84h-211v-152h-84v152h-211v84h211zM47 0v84h506v-84h-506z" />
    <glyph glyph-name="twosuperior" unicode="&#xb2;" horiz-adv-x="434" 
d="M116 560h-78q0 69 44 109.5t134 40.5q84 0 127.5 -37t43.5 -96q0 -48 -30.5 -83t-68.5 -52t-81.5 -39.5t-61.5 -44.5h242v-72h-363q2 54 32 93t70.5 60t80.5 39t68 42.5t28 57.5t-25.5 49.5t-62.5 16.5q-47 0 -72 -24t-27 -60z" />
    <glyph glyph-name="threesuperior" unicode="&#xb3;" horiz-adv-x="434" 
d="M172 473v62q8 -1 43 -1q74 0 74 57q0 53 -84 53q-48 0 -68.5 -17.5t-22.5 -54.5h-78q4 69 49.5 103.5t121.5 34.5q82 0 124 -33.5t42 -81.5q0 -31 -17 -54.5t-51 -30.5v-2q38 -6 63 -33t25 -60q0 -23 -6.5 -43.5t-23 -44.5t-54.5 -38.5t-93 -14.5q-192 0 -192 142h78
q3 -45 28.5 -60.5t79.5 -15.5q99 0 99 64q0 33 -27 51.5t-72 18.5q-14 0 -25.5 -0.5t-12.5 -0.5z" />
    <glyph glyph-name="acute" unicode="&#xb4;" 
d="M51 601l86 140h125l-131 -140h-80z" />
    <glyph glyph-name="mu" unicode="&#xb5;" horiz-adv-x="649" 
d="M61 -202v726h100v-337q0 -121 155 -121q72 0 122 41t50 115v302h100v-524h-100v79h-2q-33 -51 -87 -74t-113 -23q-77 0 -125 41v-225h-100z" />
    <glyph glyph-name="paragraph" unicode="&#xb6;" horiz-adv-x="600" 
d="M438 -172v820h-111v-820h-84v516q-96 0 -155 51t-59 131q0 97 61.5 142.5t171.5 45.5h260v-886h-84z" />
    <glyph glyph-name="periodcentered" unicode="&#xb7;" horiz-adv-x="334" 
d="M93 308q0 31 21.5 52.5t52.5 21.5t52.5 -21.5t21.5 -52.5t-21.5 -52.5t-52.5 -21.5t-52.5 21.5t-21.5 52.5z" />
    <glyph glyph-name="cedilla" unicode="&#xb8;" 
d="M76 -102l-18 19l50 83h51l-34 -57q3 0 14.5 2t19.5 2q38 0 63.5 -16.5t25.5 -48.5q0 -43 -35.5 -64t-84.5 -21q-34 0 -106 14l13 47q37 -13 75 -13q22 0 38 8.5t16 22.5q0 11 -10.5 20t-31.5 9q-20 0 -46 -7z" />
    <glyph glyph-name="onesuperior" unicode="&#xb9;" horiz-adv-x="289" 
d="M113 286v288h-121v60q40 0 64.5 4t46.5 21.5t27 50.5h67v-424h-84z" />
    <glyph glyph-name="ordmasculine" unicode="&#xba;" horiz-adv-x="445" 
d="M25 544q0 71 51 118.5t146 47.5t146.5 -47t51.5 -119q0 -71 -51.5 -118.5t-146.5 -47.5q-94 0 -145.5 47.5t-51.5 118.5zM342 543q0 41 -30.5 74t-89.5 33t-89 -33t-30 -74q0 -40 30.5 -72.5t88.5 -32.5q59 0 89.5 32.5t30.5 72.5z" />
    <glyph glyph-name="guillemotright" unicode="&#xbb;" horiz-adv-x="556" 
d="M196 278l-119 84v101l180 -133v-104l-180 -133v101zM418 278l-119 84v101l180 -133v-104l-180 -133v101z" />
    <glyph glyph-name="onequarter" unicode="&#xbc;" horiz-adv-x="1000" 
d="M803 0v93h-232v63l244 268h66v-265h72v-66h-72v-93h-78zM803 159v163h-2l-143 -163h145zM145 286v288h-121v60q40 0 64.5 4t46.5 21.5t27 50.5h67v-424h-84zM197 -16l397 726h84l-397 -726h-84z" />
    <glyph glyph-name="onehalf" unicode="&#xbd;" horiz-adv-x="1000" 
d="M145 286v288h-121v60q40 0 64.5 4t46.5 21.5t27 50.5h67v-424h-84zM199 -16l397 726h84l-397 -726h-84zM682 274h-78q0 69 44 109.5t134 40.5q84 0 127.5 -37t43.5 -96q0 -48 -30.5 -83t-68.5 -52t-81.5 -39.5t-61.5 -44.5h242v-72h-363q2 54 32 93t70.5 60t80.5 39
t68 42.5t28 57.5t-25.5 49.5t-62.5 16.5q-47 0 -72 -24t-27 -60z" />
    <glyph glyph-name="threequarters" unicode="&#xbe;" horiz-adv-x="1000" 
d="M803 0v93h-232v63l244 268h66v-265h72v-66h-72v-93h-78zM803 159v163h-2l-143 -163h145zM172 473v62q8 -1 43 -1q74 0 74 57q0 53 -84 53q-48 0 -68.5 -17.5t-22.5 -54.5h-78q4 69 49.5 103.5t121.5 34.5q82 0 124 -33.5t42 -81.5q0 -31 -17 -54.5t-51 -30.5v-2
q38 -6 63 -33t25 -60q0 -23 -6.5 -43.5t-23 -44.5t-54.5 -38.5t-93 -14.5q-192 0 -192 142h78q3 -45 28.5 -60.5t79.5 -15.5q99 0 99 64q0 33 -27 51.5t-72 18.5q-14 0 -25.5 -0.5t-12.5 -0.5zM265 -16l397 726h84l-397 -726h-84z" />
    <glyph glyph-name="questiondown" unicode="&#xbf;" horiz-adv-x="668" 
d="M510 32h100q-3 -69 -30 -118.5t-69 -74.5t-84.5 -36t-89.5 -11q-108 0 -180 56.5t-72 159.5q0 51 23.5 91t57.5 66.5t68 50t57.5 54t23.5 66.5h94q0 -46 -16 -82.5t-40.5 -58t-52.5 -43t-52.5 -38.5t-40.5 -45t-16 -62q0 -66 42 -98.5t108 -32.5q74 0 120 41.5t49 114.5z
M300 408v116h124v-116h-124z" />
    <glyph glyph-name="Agrave" unicode="&#xc0;" horiz-adv-x="759" 
d="M512 300l-137 316l-134 -316h271zM642 0l-91 208h-350l-91 -208h-114l323 714h121l323 -714h-121zM360 761l-131 140h125l86 -140h-80z" />
    <glyph glyph-name="Aacute" unicode="&#xc1;" horiz-adv-x="759" 
d="M512 300l-137 316l-134 -316h271zM642 0l-91 208h-350l-91 -208h-114l323 714h121l323 -714h-121zM320 761l86 140h125l-131 -140h-80z" />
    <glyph glyph-name="Acircumflex" unicode="&#xc2;" horiz-adv-x="759" 
d="M512 300l-137 316l-134 -316h271zM642 0l-91 208h-350l-91 -208h-114l323 714h121l323 -714h-121zM466 761l-86 88l-86 -88h-97l130 140h106l130 -140h-97z" />
    <glyph glyph-name="Atilde" unicode="&#xc3;" horiz-adv-x="759" 
d="M512 300l-137 316l-134 -316h271zM642 0l-91 208h-350l-91 -208h-114l323 714h121l323 -714h-121zM241 769h-59q5 53 34 87q30 36 80 36q43 0 98 -24q49 -21 79 -21q37 0 46 45h59q-5 -54 -35 -88.5t-79 -34.5q-43 0 -98 24q-49 21 -79 21q-37 0 -46 -45z" />
    <glyph glyph-name="Adieresis" unicode="&#xc4;" horiz-adv-x="759" 
d="M512 300l-137 316l-134 -316h271zM642 0l-91 208h-350l-91 -208h-114l323 714h121l323 -714h-121zM210 770v104h100v-104h-100zM450 770v104h100v-104h-100z" />
    <glyph glyph-name="Aring" unicode="&#xc5;" horiz-adv-x="759" 
d="M512 300l-137 316l-134 -316h271zM642 0l-91 208h-350l-91 -208h-114l323 714h121l323 -714h-121zM263 846q0 49 34 83t83 34t83 -34t34 -83t-34 -83t-83 -34t-83 34t-34 83zM443 846q0 25 -19 44t-44 19t-44 -19t-19 -44t19 -44t44 -19t44 19t19 44z" />
    <glyph glyph-name="AE" unicode="&#xc6;" horiz-adv-x="1111" 
d="M526 300v322h-50l-202 -322h252zM526 0v208h-309l-130 -208h-120l450 714h646v-92h-437v-207h423v-92h-423v-231h442v-92h-542z" />
    <glyph glyph-name="Ccedilla" unicode="&#xc7;" horiz-adv-x="815" 
d="M664 273h106q-12 -115 -100 -197.5t-224 -92.5l-24 -40q3 0 14.5 2t19.5 2q38 0 63.5 -16.5t25.5 -48.5q0 -43 -35.5 -64t-84.5 -21q-34 0 -106 14l13 47q37 -13 75 -13q22 0 38 8.5t16 22.5q0 11 -10.5 20t-31.5 9q-20 0 -46 -7l-18 19l40 66q-55 2 -104.5 15.5
t-96.5 42.5t-81 71t-54.5 105.5t-20.5 141.5q0 163 98.5 268t275.5 105q59 0 115 -13.5t110 -43t90.5 -86t42.5 -132.5h-106q-13 80 -75 131.5t-169 51.5q-130 0 -203 -74.5t-73 -217.5q0 -53 15 -100t45.5 -87t84.5 -63.5t125 -23.5q98 0 163 49t87 150z" />
    <glyph glyph-name="Egrave" unicode="&#xc8;" horiz-adv-x="704" 
d="M77 0v714h574v-92h-468v-207h454v-92h-454v-231h478v-92h-584zM352 761l-131 140h125l86 -140h-80z" />
    <glyph glyph-name="Eacute" unicode="&#xc9;" horiz-adv-x="704" 
d="M77 0v714h574v-92h-468v-207h454v-92h-454v-231h478v-92h-584zM312 761l86 140h125l-131 -140h-80z" />
    <glyph glyph-name="Ecircumflex" unicode="&#xca;" horiz-adv-x="704" 
d="M77 0v714h574v-92h-468v-207h454v-92h-454v-231h478v-92h-584zM458 761l-86 88l-86 -88h-97l130 140h106l130 -140h-97z" />
    <glyph glyph-name="Edieresis" unicode="&#xcb;" horiz-adv-x="704" 
d="M77 0v714h574v-92h-468v-207h454v-92h-454v-231h478v-92h-584zM202 770v104h100v-104h-100zM442 770v104h100v-104h-100z" />
    <glyph glyph-name="Igrave" unicode="&#xcc;" horiz-adv-x="278" 
d="M86 0v714h106v-714h-106zM119 761l-131 140h125l86 -140h-80z" />
    <glyph glyph-name="Iacute" unicode="&#xcd;" horiz-adv-x="278" 
d="M86 0v714h106v-714h-106zM79 761l86 140h125l-131 -140h-80z" />
    <glyph glyph-name="Icircumflex" unicode="&#xce;" horiz-adv-x="278" 
d="M86 0v714h106v-714h-106zM225 761l-86 88l-86 -88h-97l130 140h106l130 -140h-97z" />
    <glyph glyph-name="Idieresis" unicode="&#xcf;" horiz-adv-x="278" 
d="M86 0v714h106v-714h-106zM-31 770v104h100v-104h-100zM209 770v104h100v-104h-100z" />
    <glyph glyph-name="Eth" unicode="&#xd0;" horiz-adv-x="796" 
d="M77 419v295h362q156 0 234 -93t78 -254q0 -77 -17.5 -141.5t-53 -116t-95.5 -80.5t-140 -29h-368v347h-70v72h70zM183 419h230v-72h-230v-255h257q205 0 205 273q0 257 -225 257h-237v-203z" />
    <glyph glyph-name="Ntilde" unicode="&#xd1;" horiz-adv-x="852" 
d="M648 0l-459 568h-2v-568h-106v714h123l459 -568h2v568h106v-714h-123zM287 769h-59q5 53 34 87q30 36 80 36q43 0 98 -24q49 -21 79 -21q37 0 46 45h59q-5 -54 -35 -88.5t-79 -34.5q-43 0 -98 24q-49 21 -79 21q-37 0 -46 -45z" />
    <glyph glyph-name="Ograve" unicode="&#xd2;" horiz-adv-x="870" 
d="M38 357q0 72 22.5 136.5t68 119t124.5 87t182 32.5t182 -32.5t124.5 -87t68 -119t22.5 -136.5t-22.5 -136.5t-68 -119t-124.5 -87t-182 -32.5t-182 32.5t-124.5 87t-68 119t-22.5 136.5zM726 357q0 136 -81.5 209.5t-209.5 73.5t-209.5 -73.5t-81.5 -209.5t81.5 -209.5
t209.5 -73.5t209.5 73.5t81.5 209.5zM415 761l-131 140h125l86 -140h-80z" />
    <glyph glyph-name="Oacute" unicode="&#xd3;" horiz-adv-x="870" 
d="M38 357q0 72 22.5 136.5t68 119t124.5 87t182 32.5t182 -32.5t124.5 -87t68 -119t22.5 -136.5t-22.5 -136.5t-68 -119t-124.5 -87t-182 -32.5t-182 32.5t-124.5 87t-68 119t-22.5 136.5zM726 357q0 136 -81.5 209.5t-209.5 73.5t-209.5 -73.5t-81.5 -209.5t81.5 -209.5
t209.5 -73.5t209.5 73.5t81.5 209.5zM375 761l86 140h125l-131 -140h-80z" />
    <glyph glyph-name="Ocircumflex" unicode="&#xd4;" horiz-adv-x="870" 
d="M38 357q0 72 22.5 136.5t68 119t124.5 87t182 32.5t182 -32.5t124.5 -87t68 -119t22.5 -136.5t-22.5 -136.5t-68 -119t-124.5 -87t-182 -32.5t-182 32.5t-124.5 87t-68 119t-22.5 136.5zM726 357q0 136 -81.5 209.5t-209.5 73.5t-209.5 -73.5t-81.5 -209.5t81.5 -209.5
t209.5 -73.5t209.5 73.5t81.5 209.5zM521 761l-86 88l-86 -88h-97l130 140h106l130 -140h-97z" />
    <glyph glyph-name="Otilde" unicode="&#xd5;" horiz-adv-x="870" 
d="M38 357q0 72 22.5 136.5t68 119t124.5 87t182 32.5t182 -32.5t124.5 -87t68 -119t22.5 -136.5t-22.5 -136.5t-68 -119t-124.5 -87t-182 -32.5t-182 32.5t-124.5 87t-68 119t-22.5 136.5zM726 357q0 136 -81.5 209.5t-209.5 73.5t-209.5 -73.5t-81.5 -209.5t81.5 -209.5
t209.5 -73.5t209.5 73.5t81.5 209.5zM296 769h-59q5 53 34 87q30 36 80 36q43 0 98 -24q49 -21 79 -21q37 0 46 45h59q-5 -54 -35 -88.5t-79 -34.5q-43 0 -98 24q-49 21 -79 21q-37 0 -46 -45z" />
    <glyph glyph-name="Odieresis" unicode="&#xd6;" horiz-adv-x="870" 
d="M38 357q0 72 22.5 136.5t68 119t124.5 87t182 32.5t182 -32.5t124.5 -87t68 -119t22.5 -136.5t-22.5 -136.5t-68 -119t-124.5 -87t-182 -32.5t-182 32.5t-124.5 87t-68 119t-22.5 136.5zM726 357q0 136 -81.5 209.5t-209.5 73.5t-209.5 -73.5t-81.5 -209.5t81.5 -209.5
t209.5 -73.5t209.5 73.5t81.5 209.5zM265 770v104h100v-104h-100zM505 770v104h100v-104h-100z" />
    <glyph glyph-name="multiply" unicode="&#xd7;" horiz-adv-x="600" 
d="M244 253l-174 174l56 56l173 -174l175 174l56 -56l-175 -174l175 -174l-56 -56l-175 175l-173 -175l-56 56z" />
    <glyph glyph-name="Oslash" unicode="&#xd8;" horiz-adv-x="870" 
d="M668 542l-429 -406q77 -62 196 -62q128 0 209.5 73.5t81.5 209.5q0 113 -58 185zM202 173l429 405q-77 62 -196 62q-128 0 -209.5 -73.5t-81.5 -209.5q0 -111 58 -184zM71 -22l-35 38l92 87q-90 100 -90 254q0 72 22.5 136.5t68 119t124.5 87t182 32.5q168 0 270 -84
l93 88l36 -37l-92 -87q90 -101 90 -255q0 -72 -22.5 -136.5t-68 -119t-124.5 -87t-182 -32.5q-169 0 -270 85z" />
    <glyph glyph-name="Ugrave" unicode="&#xd9;" horiz-adv-x="796" 
d="M75 270v444h106v-457q0 -93 57.5 -138t159.5 -45t159.5 45t57.5 138v457h106v-444q0 -288 -323 -288t-323 288zM378 761l-131 140h125l86 -140h-80z" />
    <glyph glyph-name="Uacute" unicode="&#xda;" horiz-adv-x="796" 
d="M75 270v444h106v-457q0 -93 57.5 -138t159.5 -45t159.5 45t57.5 138v457h106v-444q0 -288 -323 -288t-323 288zM338 761l86 140h125l-131 -140h-80z" />
    <glyph glyph-name="Ucircumflex" unicode="&#xdb;" horiz-adv-x="796" 
d="M75 270v444h106v-457q0 -93 57.5 -138t159.5 -45t159.5 45t57.5 138v457h106v-444q0 -288 -323 -288t-323 288zM484 761l-86 88l-86 -88h-97l130 140h106l130 -140h-97z" />
    <glyph glyph-name="Udieresis" unicode="&#xdc;" horiz-adv-x="796" 
d="M75 270v444h106v-457q0 -93 57.5 -138t159.5 -45t159.5 45t57.5 138v457h106v-444q0 -288 -323 -288t-323 288zM228 770v104h100v-104h-100zM468 770v104h100v-104h-100z" />
    <glyph glyph-name="Yacute" unicode="&#xdd;" horiz-adv-x="722" 
d="M362 389l237 325h129l-315 -415v-299h-106v294l-313 420h135zM301 761l86 140h125l-131 -140h-80z" />
    <glyph glyph-name="Thorn" unicode="&#xde;" horiz-adv-x="722" 
d="M81 0v714h106v-121h262q117 0 178 -52.5t61 -152.5q0 -102 -60.5 -162.5t-171.5 -60.5h-269v-165h-106zM187 257h255q140 0 140 129q0 53 -31 84t-90 31h-274v-244z" />
    <glyph glyph-name="germandbls" unicode="&#xdf;" horiz-adv-x="648" 
d="M278 351v84q13 -2 55 -2q136 0 136 107q0 52 -40 80t-104 28q-154 0 -154 -128v-520h-100v529q0 103 70 153t182 50q123 0 187.5 -53.5t64.5 -134.5q0 -106 -99 -141v-2q134 -36 134 -192q0 -96 -68.5 -161.5t-190.5 -65.5q-26 0 -78 5v84q38 -5 61 -5q84 0 127 41
t43 106q0 63 -38.5 97t-87.5 37z" />
    <glyph glyph-name="agrave" unicode="&#xe0;" horiz-adv-x="648" 
d="M154 360h-94q10 96 74.5 139t185.5 43q45 0 83.5 -6.5t76 -22t59.5 -46.5t22 -74v-282q0 -45 45 -45q15 0 35 4v-70q-36 -6 -78 -6q-41 0 -63 15.5t-27 57.5q-29 -39 -92.5 -62t-130.5 -23q-62 0 -106 14.5t-66 39.5t-31.5 50.5t-9.5 53.5q0 74 50.5 112t174.5 51l114 12
q47 5 69 17.5t22 45.5q0 34 -22 54t-53 26t-76 6q-158 0 -162 -104zM467 207v67q-19 -21 -98 -31l-113 -14q-61 -8 -90 -27t-29 -59q0 -37 33.5 -60t88.5 -23q87 0 147.5 41.5t60.5 105.5zM304 591l-131 140h125l86 -140h-80z" />
    <glyph glyph-name="aacute" unicode="&#xe1;" horiz-adv-x="648" 
d="M154 360h-94q10 96 74.5 139t185.5 43q45 0 83.5 -6.5t76 -22t59.5 -46.5t22 -74v-282q0 -45 45 -45q15 0 35 4v-70q-36 -6 -78 -6q-41 0 -63 15.5t-27 57.5q-29 -39 -92.5 -62t-130.5 -23q-62 0 -106 14.5t-66 39.5t-31.5 50.5t-9.5 53.5q0 74 50.5 112t174.5 51l114 12
q47 5 69 17.5t22 45.5q0 34 -22 54t-53 26t-76 6q-158 0 -162 -104zM467 207v67q-19 -21 -98 -31l-113 -14q-61 -8 -90 -27t-29 -59q0 -37 33.5 -60t88.5 -23q87 0 147.5 41.5t60.5 105.5zM264 591l86 140h125l-131 -140h-80z" />
    <glyph glyph-name="acircumflex" unicode="&#xe2;" horiz-adv-x="648" 
d="M154 360h-94q10 96 74.5 139t185.5 43q45 0 83.5 -6.5t76 -22t59.5 -46.5t22 -74v-282q0 -45 45 -45q15 0 35 4v-70q-36 -6 -78 -6q-41 0 -63 15.5t-27 57.5q-29 -39 -92.5 -62t-130.5 -23q-62 0 -106 14.5t-66 39.5t-31.5 50.5t-9.5 53.5q0 74 50.5 112t174.5 51l114 12
q47 5 69 17.5t22 45.5q0 34 -22 54t-53 26t-76 6q-158 0 -162 -104zM467 207v67q-19 -21 -98 -31l-113 -14q-61 -8 -90 -27t-29 -59q0 -37 33.5 -60t88.5 -23q87 0 147.5 41.5t60.5 105.5zM410 591l-86 88l-86 -88h-97l130 140h106l130 -140h-97z" />
    <glyph glyph-name="atilde" unicode="&#xe3;" horiz-adv-x="648" 
d="M154 360h-94q10 96 74.5 139t185.5 43q45 0 83.5 -6.5t76 -22t59.5 -46.5t22 -74v-282q0 -45 45 -45q15 0 35 4v-70q-36 -6 -78 -6q-41 0 -63 15.5t-27 57.5q-29 -39 -92.5 -62t-130.5 -23q-62 0 -106 14.5t-66 39.5t-31.5 50.5t-9.5 53.5q0 74 50.5 112t174.5 51l114 12
q47 5 69 17.5t22 45.5q0 34 -22 54t-53 26t-76 6q-158 0 -162 -104zM467 207v67q-19 -21 -98 -31l-113 -14q-61 -8 -90 -27t-29 -59q0 -37 33.5 -60t88.5 -23q87 0 147.5 41.5t60.5 105.5zM185 599h-59q5 53 34 87q30 36 80 36q43 0 98 -24q49 -21 79 -21q37 0 46 45h59
q-5 -54 -35 -88.5t-79 -34.5q-43 0 -98 24q-49 21 -79 21q-37 0 -46 -45z" />
    <glyph glyph-name="adieresis" unicode="&#xe4;" horiz-adv-x="648" 
d="M154 360h-94q10 96 74.5 139t185.5 43q45 0 83.5 -6.5t76 -22t59.5 -46.5t22 -74v-282q0 -45 45 -45q15 0 35 4v-70q-36 -6 -78 -6q-41 0 -63 15.5t-27 57.5q-29 -39 -92.5 -62t-130.5 -23q-62 0 -106 14.5t-66 39.5t-31.5 50.5t-9.5 53.5q0 74 50.5 112t174.5 51l114 12
q47 5 69 17.5t22 45.5q0 34 -22 54t-53 26t-76 6q-158 0 -162 -104zM467 207v67q-19 -21 -98 -31l-113 -14q-61 -8 -90 -27t-29 -59q0 -37 33.5 -60t88.5 -23q87 0 147.5 41.5t60.5 105.5zM154 600v104h100v-104h-100zM394 600v104h100v-104h-100z" />
    <glyph glyph-name="aring" unicode="&#xe5;" horiz-adv-x="648" 
d="M154 360h-94q10 96 74.5 139t185.5 43q45 0 83.5 -6.5t76 -22t59.5 -46.5t22 -74v-282q0 -45 45 -45q15 0 35 4v-70q-36 -6 -78 -6q-41 0 -63 15.5t-27 57.5q-29 -39 -92.5 -62t-130.5 -23q-62 0 -106 14.5t-66 39.5t-31.5 50.5t-9.5 53.5q0 74 50.5 112t174.5 51l114 12
q47 5 69 17.5t22 45.5q0 34 -22 54t-53 26t-76 6q-158 0 -162 -104zM467 207v67q-19 -21 -98 -31l-113 -14q-61 -8 -90 -27t-29 -59q0 -37 33.5 -60t88.5 -23q87 0 147.5 41.5t60.5 105.5zM207 686q0 49 34 83t83 34t83 -34t34 -83t-34 -83t-83 -34t-83 34t-34 83zM387 686
q0 25 -19 44t-44 19t-44 -19t-19 -44t19 -44t44 -19t44 19t19 44z" />
    <glyph glyph-name="ae" unicode="&#xe6;" horiz-adv-x="1074" 
d="M1033 232h-472q10 -83 54 -124.5t130 -41.5q51 0 98 21.5t70 71.5h106q-35 -89 -110 -133t-160 -44q-81 0 -142.5 23.5t-103.5 90.5q-26 -42 -88.5 -78t-164.5 -36q-62 0 -106 14.5t-66 39.5t-31.5 50.5t-9.5 53.5q0 75 49.5 113t169.5 50l120 12q47 5 69 17.5t22 45.5
q0 34 -22 54t-53 26t-76 6q-158 0 -162 -104h-94q10 96 74.5 139t185.5 43q156 0 223 -88q72 88 207 88q132 0 207.5 -82t75.5 -215v-13zM561 310h366q-11 70 -61 109t-122 39q-70 0 -121 -39.5t-62 -108.5zM467 207v47q-50 -13 -98 -17l-99 -7q-68 -5 -100.5 -25.5
t-32.5 -61.5q0 -37 33.5 -60t88.5 -23q87 0 147.5 41.5t60.5 105.5z" />
    <glyph glyph-name="ccedilla" unicode="&#xe7;" horiz-adv-x="630" 
d="M490 192h106q-28 -105 -88.5 -154t-154.5 -54l-24 -41q3 0 14.5 2t19.5 2q38 0 63.5 -16.5t25.5 -48.5q0 -43 -35.5 -64t-84.5 -21q-34 0 -106 14l13 47q37 -13 75 -13q22 0 38 8.5t16 22.5q0 11 -10.5 20t-31.5 9q-20 0 -46 -7l-18 19l40 66q-134 6 -199 85.5t-65 190.5
q0 122 74 202.5t210 80.5q109 0 183 -49.5t89 -143.5h-106q-9 52 -49.5 80.5t-109.5 28.5q-92 0 -138.5 -53.5t-46.5 -142.5t46.5 -142.5t138.5 -53.5q67 0 105.5 30.5t55.5 95.5z" />
    <glyph glyph-name="egrave" unicode="&#xe8;" horiz-adv-x="667" 
d="M626 232h-482q6 -77 63.5 -121.5t129.5 -44.5q52 0 99 21.5t70 71.5h106q-35 -89 -110 -133t-160 -44q-146 0 -225 80t-79 200t79 200t225 80q54 0 103 -16.5t90.5 -50t66 -93t24.5 -137.5v-13zM147 310h373q-11 70 -61 109t-122 39t-125.5 -40t-64.5 -108zM314 591
l-131 140h125l86 -140h-80z" />
    <glyph glyph-name="eacute" unicode="&#xe9;" horiz-adv-x="667" 
d="M626 232h-482q6 -77 63.5 -121.5t129.5 -44.5q52 0 99 21.5t70 71.5h106q-35 -89 -110 -133t-160 -44q-146 0 -225 80t-79 200t79 200t225 80q54 0 103 -16.5t90.5 -50t66 -93t24.5 -137.5v-13zM147 310h373q-11 70 -61 109t-122 39t-125.5 -40t-64.5 -108zM274 591
l86 140h125l-131 -140h-80z" />
    <glyph glyph-name="ecircumflex" unicode="&#xea;" horiz-adv-x="667" 
d="M626 232h-482q6 -77 63.5 -121.5t129.5 -44.5q52 0 99 21.5t70 71.5h106q-35 -89 -110 -133t-160 -44q-146 0 -225 80t-79 200t79 200t225 80q54 0 103 -16.5t90.5 -50t66 -93t24.5 -137.5v-13zM147 310h373q-11 70 -61 109t-122 39t-125.5 -40t-64.5 -108zM420 591
l-86 88l-86 -88h-97l130 140h106l130 -140h-97z" />
    <glyph glyph-name="edieresis" unicode="&#xeb;" horiz-adv-x="667" 
d="M626 232h-482q6 -77 63.5 -121.5t129.5 -44.5q52 0 99 21.5t70 71.5h106q-35 -89 -110 -133t-160 -44q-146 0 -225 80t-79 200t79 200t225 80q54 0 103 -16.5t90.5 -50t66 -93t24.5 -137.5v-13zM147 310h373q-11 70 -61 109t-122 39t-125.5 -40t-64.5 -108zM164 600v104
h100v-104h-100zM404 600v104h100v-104h-100z" />
    <glyph glyph-name="igrave" unicode="&#xec;" 
d="M61 0v524h100v-524h-100zM91 591l-131 140h125l86 -140h-80z" />
    <glyph glyph-name="iacute" unicode="&#xed;" 
d="M61 0v524h100v-524h-100zM51 591l86 140h125l-131 -140h-80z" />
    <glyph glyph-name="icircumflex" unicode="&#xee;" 
d="M61 0v524h100v-524h-100zM197 591l-86 88l-86 -88h-97l130 140h106l130 -140h-97z" />
    <glyph glyph-name="idieresis" unicode="&#xef;" 
d="M61 0v524h100v-524h-100zM-59 600v104h100v-104h-100zM181 600v104h100v-104h-100z" />
    <glyph glyph-name="eth" unicode="&#xf0;" horiz-adv-x="684" 
d="M540 262q0 81 -48.5 138.5t-149.5 57.5t-149.5 -57.5t-48.5 -138.5t48.5 -138.5t149.5 -57.5t149.5 57.5t48.5 138.5zM141 606l112 50q-49 22 -101 38l69 56q66 -22 125 -53l119 53l41 -36l-108 -48q119 -78 183.5 -181t64.5 -215q0 -129 -78 -208.5t-226 -79.5
q-146 0 -225 80t-79 200q0 118 84.5 199t206.5 81q83 0 134 -47l2 2q-64 77 -155 130l-129 -57z" />
    <glyph glyph-name="ntilde" unicode="&#xf1;" horiz-adv-x="649" 
d="M61 0v524h100v-79h2q62 97 205 97q100 0 160 -45.5t60 -139.5v-357h-100v337q0 121 -155 121q-72 0 -122 -41t-50 -115v-302h-100zM186 599h-59q5 53 34 87q30 36 80 36q43 0 98 -24q49 -21 79 -21q37 0 46 45h59q-5 -54 -35 -88.5t-79 -34.5q-43 0 -98 24q-49 21 -79 21
q-37 0 -46 -45z" />
    <glyph glyph-name="ograve" unicode="&#xf2;" horiz-adv-x="684" 
d="M38 262q0 120 79 200t225 80t225 -80t79 -200t-79 -200t-225 -80t-225 80t-79 200zM540 262q0 81 -48.5 138.5t-149.5 57.5t-149.5 -57.5t-48.5 -138.5t48.5 -138.5t149.5 -57.5t149.5 57.5t48.5 138.5zM322 591l-131 140h125l86 -140h-80z" />
    <glyph glyph-name="oacute" unicode="&#xf3;" horiz-adv-x="684" 
d="M38 262q0 120 79 200t225 80t225 -80t79 -200t-79 -200t-225 -80t-225 80t-79 200zM540 262q0 81 -48.5 138.5t-149.5 57.5t-149.5 -57.5t-48.5 -138.5t48.5 -138.5t149.5 -57.5t149.5 57.5t48.5 138.5zM282 591l86 140h125l-131 -140h-80z" />
    <glyph glyph-name="ocircumflex" unicode="&#xf4;" horiz-adv-x="684" 
d="M38 262q0 120 79 200t225 80t225 -80t79 -200t-79 -200t-225 -80t-225 80t-79 200zM540 262q0 81 -48.5 138.5t-149.5 57.5t-149.5 -57.5t-48.5 -138.5t48.5 -138.5t149.5 -57.5t149.5 57.5t48.5 138.5zM428 591l-86 88l-86 -88h-97l130 140h106l130 -140h-97z" />
    <glyph glyph-name="otilde" unicode="&#xf5;" horiz-adv-x="684" 
d="M38 262q0 120 79 200t225 80t225 -80t79 -200t-79 -200t-225 -80t-225 80t-79 200zM540 262q0 81 -48.5 138.5t-149.5 57.5t-149.5 -57.5t-48.5 -138.5t48.5 -138.5t149.5 -57.5t149.5 57.5t48.5 138.5zM203 599h-59q5 53 34 87q30 36 80 36q43 0 98 -24q49 -21 79 -21
q37 0 46 45h59q-5 -54 -35 -88.5t-79 -34.5q-43 0 -98 24q-49 21 -79 21q-37 0 -46 -45z" />
    <glyph glyph-name="odieresis" unicode="&#xf6;" horiz-adv-x="684" 
d="M38 262q0 120 79 200t225 80t225 -80t79 -200t-79 -200t-225 -80t-225 80t-79 200zM540 262q0 81 -48.5 138.5t-149.5 57.5t-149.5 -57.5t-48.5 -138.5t48.5 -138.5t149.5 -57.5t149.5 57.5t48.5 138.5zM172 600v104h100v-104h-100zM412 600v104h100v-104h-100z" />
    <glyph glyph-name="divide" unicode="&#xf7;" horiz-adv-x="600" 
d="M230 460q0 28 21 49t49 21t49 -21t21 -49t-21 -49t-49 -21t-49 21t-21 49zM230 46q0 28 21 49t49 21t49 -21t21 -49t-21 -49t-49 -21t-49 21t-21 49zM47 211v84h506v-84h-506z" />
    <glyph glyph-name="oslash" unicode="&#xf8;" horiz-adv-x="684" 
d="M504 384l-295 -275q50 -43 133 -43q101 0 149.5 57.5t48.5 138.5q0 72 -36 122zM180 140l295 275q-51 43 -133 43q-101 0 -149.5 -57.5t-48.5 -138.5q0 -73 36 -122zM545 480l72 67l29 -31l-69 -64q69 -75 69 -190q0 -120 -79 -200t-225 -80q-127 0 -203 62l-72 -67
l-29 31l70 65q-70 74 -70 189q0 120 79 200t225 80q124 0 203 -62z" />
    <glyph glyph-name="ugrave" unicode="&#xf9;" horiz-adv-x="649" 
d="M588 524v-524h-100v79h-2q-62 -97 -205 -97q-100 0 -160 45.5t-60 139.5v357h100v-337q0 -121 155 -121q72 0 122 41t50 115v302h100zM305 591l-131 140h125l86 -140h-80z" />
    <glyph glyph-name="uacute" unicode="&#xfa;" horiz-adv-x="649" 
d="M588 524v-524h-100v79h-2q-62 -97 -205 -97q-100 0 -160 45.5t-60 139.5v357h100v-337q0 -121 155 -121q72 0 122 41t50 115v302h100zM265 591l86 140h125l-131 -140h-80z" />
    <glyph glyph-name="ucircumflex" unicode="&#xfb;" horiz-adv-x="649" 
d="M588 524v-524h-100v79h-2q-62 -97 -205 -97q-100 0 -160 45.5t-60 139.5v357h100v-337q0 -121 155 -121q72 0 122 41t50 115v302h100zM411 591l-86 88l-86 -88h-97l130 140h106l130 -140h-97z" />
    <glyph glyph-name="udieresis" unicode="&#xfc;" horiz-adv-x="649" 
d="M588 524v-524h-100v79h-2q-62 -97 -205 -97q-100 0 -160 45.5t-60 139.5v357h100v-337q0 -121 155 -121q72 0 122 41t50 115v302h100zM155 600v104h100v-104h-100zM395 600v104h100v-104h-100z" />
    <glyph glyph-name="yacute" unicode="&#xfd;" horiz-adv-x="574" 
d="M290 110l177 414h112l-274 -614q-36 -81 -73 -105.5t-109 -24.5q-24 0 -76 4v84q4 0 24 -2t34 -2q46 0 65.5 14.5t43.5 65.5l23 48l-242 532h115zM227 591l86 140h125l-131 -140h-80z" />
    <glyph glyph-name="thorn" unicode="&#xfe;" horiz-adv-x="685" 
d="M61 -202v922h100v-269h2q28 40 83.5 62.5t115.5 22.5q123 0 204 -74.5t81 -202.5t-81 -202.5t-204 -74.5q-61 0 -115.5 22t-83.5 63h-2v-269h-100zM541 259q0 81 -48.5 137t-143.5 56q-96 0 -145 -56t-49 -137q0 -89 53 -141t141 -52t140 52t52 141z" />
    <glyph glyph-name="ydieresis" unicode="&#xff;" horiz-adv-x="574" 
d="M290 110l177 414h112l-274 -614q-36 -81 -73 -105.5t-109 -24.5q-24 0 -76 4v84q4 0 24 -2t34 -2q46 0 65.5 14.5t43.5 65.5l23 48l-242 532h115zM117 600v104h100v-104h-100zM357 600v104h100v-104h-100z" />
    <glyph glyph-name="dotlessi" unicode="&#x131;" 
d="M61 0v524h100v-524h-100z" />
    <glyph glyph-name="Lslash" unicode="&#x141;" horiz-adv-x="630" 
d="M187 380l210 144v-84l-210 -144v-204h434v-92h-540v224l-78 -54v84l78 54v406h106v-334z" />
    <glyph glyph-name="lslash" unicode="&#x142;" 
d="M161 434l55 42v-84l-55 -42v-350h-100v274l-55 -42v84l55 42v362h100v-286z" />
    <glyph glyph-name="OE" unicode="&#x152;" horiz-adv-x="1167" 
d="M601 225v278q0 43 -57 90t-146 47q-43 0 -82.5 -13.5t-76.5 -43.5t-59.5 -88t-22.5 -138t22.5 -138t59.5 -88t76.5 -43.5t82.5 -13.5q82 0 142.5 51t60.5 100zM604 0v81h-2q-77 -99 -217 -99q-82 0 -147.5 33t-105 87t-60.5 119.5t-21 135.5t21 135.5t60.5 119.5t105 87
t147.5 33q144 0 219 -88v70h512v-92h-415v-207h401v-92h-401v-231h423v-92h-520z" />
    <glyph glyph-name="oe" unicode="&#x153;" horiz-adv-x="1111" 
d="M1081 232h-466q4 -59 32.5 -98t65 -53.5t79.5 -14.5q52 0 99 21.5t70 71.5h106q-35 -89 -110 -133t-160 -44q-158 0 -234 104q-79 -104 -230 -104q-148 0 -221.5 78.5t-73.5 201.5q0 128 84 204t211 76q155 0 237 -108q84 108 228 108q132 0 207.5 -82t75.5 -215v-13z
M521 267q0 88 -54 139.5t-133 51.5q-90 0 -140 -55t-50 -142q0 -86 51.5 -140.5t134.5 -54.5q93 0 142 57.5t49 143.5zM615 310h360q-11 70 -61 109t-122 39q-70 0 -118 -38.5t-59 -109.5z" />
    <glyph glyph-name="Scaron" unicode="&#x160;" horiz-adv-x="667" 
d="M16 235h106q1 -46 21 -79t54.5 -50t72.5 -24.5t82 -7.5q87 0 140 32t53 89q0 46 -33.5 70.5t-99.5 35.5l-162 27q-39 6 -70 16t-66.5 30t-55.5 56t-20 85q0 99 75.5 158t210.5 59q57 0 107 -11.5t94.5 -36t71.5 -69.5t31 -107h-106q-4 25 -13.5 45t-31 41.5t-64 33.5
t-103.5 12q-67 0 -116.5 -29.5t-49.5 -87.5q0 -74 117 -94l175 -30q27 -5 45 -9t54 -18t58 -31.5t40 -50.5t18 -74q0 -65 -27 -112.5t-73 -73t-97.5 -37t-109.5 -11.5q-65 0 -120 12.5t-103.5 40t-76.5 78.5t-28 122zM354 813l86 88h97l-130 -140h-106l-130 140h97z" />
    <glyph glyph-name="scaron" unicode="&#x161;" horiz-adv-x="593" 
d="M31 165h100q0 -42 39 -73.5t126 -31.5q88 0 124 24t36 58q0 30 -21 46t-78 24l-165 22q-60 8 -101 44.5t-41 94.5q0 79 64 124t175 45q123 0 186 -47.5t70 -128.5h-100q-2 42 -42.5 70t-114.5 28q-57 0 -97.5 -19t-40.5 -61q0 -28 18 -43t69 -22l142 -19
q97 -13 140 -47.5t43 -91.5q0 -89 -69.5 -134t-193.5 -45q-255 0 -268 183zM297 643l86 88h97l-130 -140h-106l-130 140h97z" />
    <glyph glyph-name="Ydieresis" unicode="&#x178;" horiz-adv-x="722" 
d="M362 389l237 325h129l-315 -415v-299h-106v294l-313 420h135zM191 770v104h100v-104h-100zM431 770v104h100v-104h-100z" />
    <glyph glyph-name="Zcaron" unicode="&#x17d;" horiz-adv-x="685" 
d="M14 0v95l510 527h-474v92h613v-92l-512 -530h520v-92h-657zM343 813l86 88h97l-130 -140h-106l-130 140h97z" />
    <glyph glyph-name="zcaron" unicode="&#x17e;" horiz-adv-x="593" 
d="M27 0v82l386 358h-367v84h505v-78l-391 -362h406v-84h-539zM297 643l86 88h97l-130 -140h-106l-130 140h97z" />
    <glyph glyph-name="florin" unicode="&#x192;" horiz-adv-x="668" 
d="M267 381l36 174q18 86 60 120.5t108 34.5q12 0 103 -8l-17 -82q-46 6 -68 6q-40 0 -60.5 -20.5t-32.5 -81.5l-29 -143h137l-14 -60h-136l-74 -378q-12 -64 -58 -101.5t-122 -37.5q-41 0 -91 10l17 80q43 -12 64 -12q38 0 61.5 21t35.5 81l67 337h-132l12 60h133z" />
    <glyph glyph-name="circumflex" unicode="&#x2c6;" 
d="M197 601l-86 88l-86 -88h-97l130 140h106l130 -140h-97z" />
    <glyph glyph-name="caron" unicode="&#x2c7;" 
d="M111 653l86 88h97l-130 -140h-106l-130 140h97z" />
    <glyph glyph-name="uni02C9" unicode="&#x2c9;" 
d="M-85 629v78h392v-78h-392z" />
    <glyph glyph-name="breve" unicode="&#x2d8;" 
d="M-63 740h66q10 -71 108 -71t108 71h66q-4 -72 -52.5 -107.5t-121.5 -35.5t-121.5 35.5t-52.5 107.5z" />
    <glyph glyph-name="dotaccent" unicode="&#x2d9;" 
d="M61 610v104h100v-104h-100z" />
    <glyph glyph-name="ring" unicode="&#x2da;" 
d="M-6 686q0 49 34 83t83 34t83 -34t34 -83t-34 -83t-83 -34t-83 34t-34 83zM174 686q0 25 -19 44t-44 19t-44 -19t-19 -44t19 -44t44 -19t44 19t19 44z" />
    <glyph glyph-name="ogonek" unicode="&#x2db;" 
d="M111 0h54q-40 -20 -67 -50t-27 -62q0 -42 48 -42q34 0 82 10l12 -35q-49 -17 -102 -17q-106 0 -106 78q0 42 34.5 73t71.5 45z" />
    <glyph glyph-name="tilde" unicode="&#x2dc;" 
d="M-28 609h-59q5 53 34 87q30 36 80 36q43 0 98 -24q49 -21 79 -21q37 0 46 45h59q-5 -54 -35 -88.5t-79 -34.5q-43 0 -98 24q-49 21 -79 21q-37 0 -46 -45z" />
    <glyph glyph-name="hungarumlaut" unicode="&#x2dd;" 
d="M171 601l86 140h125l-131 -140h-80zM-69 601l86 140h125l-131 -140h-80z" />
    <glyph glyph-name="uni03A9" unicode="&#x3a9;" horiz-adv-x="871" 
d="M236 70v3q-70 48 -116 125t-46 177q0 143 104.5 239t259.5 96q158 0 258 -99t100 -234q0 -102 -47.5 -180.5t-116.5 -123.5v-3h180v-70h-294v53q79 41 131.5 119t52.5 192q0 107 -72 191.5t-192 84.5q-119 0 -194.5 -81t-75.5 -199q0 -107 53.5 -188t131.5 -119v-53h-295
v70h178z" />
    <glyph glyph-name="uni03BC" unicode="&#x3bc;" horiz-adv-x="649" 
d="M61 -202v726h100v-337q0 -121 155 -121q72 0 122 41t50 115v302h100v-524h-100v79h-2q-33 -51 -87 -74t-113 -23q-77 0 -125 41v-225h-100z" />
    <glyph glyph-name="pi" unicode="&#x3c0;" horiz-adv-x="679" 
d="M649 448h-95v-289q0 -101 16 -159h-91q-19 25 -19 149v299h-212q-6 -108 -30.5 -248t-53.5 -200h-93q31 74 55 208t29 240q-93 0 -134 -15l-13 58q47 29 171 29h479z" />
    <glyph glyph-name="endash" unicode="&#x2013;" horiz-adv-x="500" 
d="M0 236v84h500v-84h-500z" />
    <glyph glyph-name="emdash" unicode="&#x2014;" horiz-adv-x="1000" 
d="M0 236v84h1000v-84h-1000z" />
    <glyph glyph-name="quoteleft" unicode="&#x2018;" horiz-adv-x="334" 
d="M105 445v102q0 64 30.5 110t93.5 57v-49q-31 -9 -45 -32t-15 -72h60v-116h-124z" />
    <glyph glyph-name="quoteright" unicode="&#x2019;" horiz-adv-x="334" 
d="M105 445v49q31 9 45 32t15 72h-60v116h124v-102q0 -64 -30.5 -110t-93.5 -57z" />
    <glyph glyph-name="quotesinglbase" unicode="&#x201a;" horiz-adv-x="334" 
d="M105 -153v49q31 9 45 32t15 72h-60v116h124v-102q0 -64 -30.5 -110t-93.5 -57z" />
    <glyph glyph-name="quotedblleft" unicode="&#x201c;" horiz-adv-x="481" 
d="M284 445v102q0 64 30.5 110t93.5 57v-49q-31 -9 -45 -32t-15 -72h60v-116h-124zM73 445v102q0 64 30.5 110t93.5 57v-49q-31 -9 -45 -32t-15 -72h60v-116h-124z" />
    <glyph glyph-name="quotedblright" unicode="&#x201d;" horiz-adv-x="481" 
d="M284 445v49q31 9 45 32t15 72h-60v116h124v-102q0 -64 -30.5 -110t-93.5 -57zM73 445v49q31 9 45 32t15 72h-60v116h124v-102q0 -64 -30.5 -110t-93.5 -57z" />
    <glyph glyph-name="quotedblbase" unicode="&#x201e;" horiz-adv-x="481" 
d="M284 -153v49q31 9 45 32t15 72h-60v116h124v-102q0 -64 -30.5 -110t-93.5 -57zM73 -153v49q31 9 45 32t15 72h-60v116h124v-102q0 -64 -30.5 -110t-93.5 -57z" />
    <glyph glyph-name="dagger" unicode="&#x2020;" horiz-adv-x="668" 
d="M53 390v92h231v232h100v-232h231v-92h-231v-580h-100v580h-231z" />
    <glyph glyph-name="daggerdbl" unicode="&#x2021;" horiz-adv-x="668" 
d="M284 118v288h-231v84h231v224h100v-224h231v-84h-231v-288h231v-84h-231v-224h-100v224h-231v84h231z" />
    <glyph glyph-name="bullet" unicode="&#x2022;" horiz-adv-x="500" 
d="M72 357q0 73 52 125.5t126 52.5t126 -52.5t52 -125.5t-52 -125.5t-126 -52.5t-126 52.5t-52 125.5z" />
    <glyph glyph-name="ellipsis" unicode="&#x2026;" horiz-adv-x="1000" 
d="M105 0v116h124v-116h-124zM438 0v116h124v-116h-124zM771 0v116h124v-116h-124z" />
    <glyph glyph-name="perthousand" unicode="&#x2030;" horiz-adv-x="1167" 
d="M1082 172q0 122 -93 122t-93 -122t93 -122t93 122zM152 -16l397 726h84l-397 -726h-84zM271 522q0 122 -93 122t-93 -122t93 -122t93 122zM818 172q0 84 41.5 136t129.5 52t129.5 -52t41.5 -136t-41.5 -136t-129.5 -52t-129.5 52t-41.5 136zM7 522q0 84 41.5 136
t129.5 52t129.5 -52t41.5 -136t-41.5 -136t-129.5 -52t-129.5 52t-41.5 136zM433 172q0 84 41.5 136t129.5 52t129.5 -52t41.5 -136t-41.5 -136t-129.5 -52t-129.5 52t-41.5 136zM697 172q0 122 -93 122t-93 -122t93 -122t93 122z" />
    <glyph glyph-name="guilsinglleft" unicode="&#x2039;" horiz-adv-x="334" 
d="M77 226v104l180 133v-101l-119 -84l119 -84v-101z" />
    <glyph glyph-name="guilsinglright" unicode="&#x203a;" horiz-adv-x="334" 
d="M196 278l-119 84v101l180 -133v-104l-180 -133v101z" />
    <glyph glyph-name="fraction" unicode="&#x2044;" horiz-adv-x="167" 
d="M-157 -16l397 726h84l-397 -726h-84z" />
    <glyph glyph-name="Euro" unicode="&#x20ac;" horiz-adv-x="668" 
d="M644 650l-44 -79q-99 48 -180 48q-173 0 -222 -170h355l-27 -60h-340l-2 -56h324l-27 -60h-291q18 -96 77.5 -148.5t155.5 -52.5q61 0 105.5 20t105.5 64v-106q-53 -37 -99.5 -51.5t-112.5 -14.5q-142 0 -229.5 74.5t-108.5 214.5h-72l27 60h41l2 56h-72l27 60h54
q29 124 115.5 191.5t214.5 67.5q114 0 223 -58z" />
    <glyph glyph-name="afii61289" unicode="&#x2113;" horiz-adv-x="578" 
d="M505 167l44 -39q-80 -139 -228 -139q-88 0 -136.5 50t-56.5 126q-1 4 -1 11q-12 -8 -35.5 -26t-29.5 -22l-29 51q9 7 42.5 31.5t50.5 37.5v267q0 132 52 192t130 60q74 0 113 -49t39 -120q0 -92 -62.5 -181.5t-183.5 -191.5v-24q1 -69 38.5 -105t89.5 -36q51 0 94.5 32
t68.5 75zM214 532v-226q85 83 131.5 152t46.5 136q0 110 -83 110q-37 0 -66 -41.5t-29 -130.5z" />
    <glyph glyph-name="trademark" unicode="&#x2122;" horiz-adv-x="990" 
d="M144 302v346h-124v66h332v-66h-124v-346h-84zM816 302v328h-2l-121 -328h-56l-121 328h-2v-328h-78v412h117l112 -292l112 292h117v-412h-78z" />
    <glyph glyph-name="Omega" unicode="&#x2126;" horiz-adv-x="871" 
d="M236 70v3q-70 48 -116 125t-46 177q0 143 104.5 239t259.5 96q158 0 258 -99t100 -234q0 -102 -47.5 -180.5t-116.5 -123.5v-3h180v-70h-294v53q79 41 131.5 119t52.5 192q0 107 -72 191.5t-192 84.5q-119 0 -194.5 -81t-75.5 -199q0 -107 53.5 -188t131.5 -119v-53h-295
v70h178z" />
    <glyph glyph-name="estimated" unicode="&#x212e;" horiz-adv-x="875" 
d="M840 337h-653q-5 0 -5 -4v-198q0 -13 9 -23q104 -107 247 -107q155 0 260 120h58q-55 -65 -139 -102.5t-180 -37.5q-167 0 -285 106t-118 256t118 256.5t285 106.5t285 -106.5t118 -256.5v-10zM692 363v198q0 13 -9 24q-106 103 -245 103q-142 0 -246 -106
q-10 -10 -10 -25v-194q0 -7 5 -7h501q4 0 4 7z" />
    <glyph glyph-name="partialdiff" unicode="&#x2202;" horiz-adv-x="645" 
d="M117 660l-32 60q82 59 201 59q126 0 214 -103t88 -280q0 -170 -83 -289.5t-228 -119.5q-58 0 -104 22t-72.5 58t-40.5 76t-14 80q0 112 71.5 182.5t175.5 70.5q74 0 127.5 -37.5t74.5 -74.5h1q1 13 1 47q0 132 -64 214.5t-157 82.5q-90 0 -159 -48zM285 58h1q78 0 131 68
t66 161q-14 41 -61.5 80.5t-110.5 39.5q-72 0 -122.5 -53t-50.5 -129q0 -70 41 -118.5t106 -48.5z" />
    <glyph glyph-name="Delta" unicode="&#x2206;" horiz-adv-x="771" 
d="M33 0v58l299 661h110l295 -661v-58h-704zM131 71h502l-171 380q-6 14 -37 87.5t-40 98.5h-5q-6 -17 -33.5 -82t-35.5 -85z" />
    <glyph glyph-name="product" unicode="&#x220f;" horiz-adv-x="825" 
d="M797 621h-133v-717h-89v717h-326v-717h-90v717h-132v77h770v-77z" />
    <glyph glyph-name="summation" unicode="&#x2211;" horiz-adv-x="653" 
d="M628 -96h-604v54l312 341l-297 340v59h572v-76h-441v-3l273 -310l-294 -322v-4h479v-79z" />
    <glyph glyph-name="minus" unicode="&#x2212;" horiz-adv-x="600" 
d="M47 211v84h506v-84h-506z" />
    <glyph glyph-name="uni2215" unicode="&#x2215;" horiz-adv-x="167" 
d="M-157 -16l397 726h84l-397 -726h-84z" />
    <glyph glyph-name="uni2219" unicode="&#x2219;" horiz-adv-x="334" 
d="M93 308q0 31 21.5 52.5t52.5 21.5t52.5 -21.5t21.5 -52.5t-21.5 -52.5t-52.5 -21.5t-52.5 21.5t-21.5 52.5z" />
    <glyph glyph-name="radical" unicode="&#x221a;" horiz-adv-x="664" 
d="M672 828l-263 -979h-80l-187 461l-86 -33l-19 50l160 64l151 -387q17 -50 21 -66h1q2 11 8 36t8 32l217 822h69z" />
    <glyph glyph-name="infinity" unicode="&#x221e;" horiz-adv-x="865" 
d="M807 290v-1q0 -79 -50.5 -128t-119.5 -49q-50 0 -96 31.5t-108 100.5q-38 -43 -62 -66t-64.5 -44.5t-83.5 -21.5q-68 0 -117 50t-49 123q0 76 50 126t125 50q57 0 104.5 -34.5t101.5 -97.5q27 30 35.5 39.5t33.5 33t41.5 32.5t43 18t53.5 9q73 -1 117.5 -48t44.5 -123z
M231 166h1q17 0 35 6.5t30 12.5t31 23t25.5 23t27 28t22.5 24q-28 34 -39 47t-36.5 36.5t-50 33t-52.5 9.5q-50 0 -80.5 -36.5t-30.5 -88.5q0 -49 33 -83.5t84 -34.5zM639 409h-1q-26 0 -54.5 -15.5t-43 -28t-43.5 -43.5t-31 -33q62 -68 98 -95.5t77 -27.5q50 0 79.5 36.5
t29.5 82.5q0 57 -31.5 90.5t-79.5 33.5z" />
    <glyph glyph-name="integral" unicode="&#x222b;" horiz-adv-x="400" 
d="M388 839l-14 -58q-20 12 -44 12q-39 0 -59 -24q-38 -42 -38 -177q0 -78 8.5 -247t8.5 -252q0 -132 -48 -200q-38 -56 -114 -56q-48 0 -79 18l14 61q31 -14 55 -14q33 0 53 22q41 46 41 171q0 84 -8.5 255.5t-8.5 250.5q0 83 14.5 133.5t47.5 81.5q42 39 107 39
q40 0 64 -16z" />
    <glyph glyph-name="approxequal" unicode="&#x2248;" horiz-adv-x="654" 
d="M564 448l35 -34q-62 -102 -149 -102q-23 0 -47 7t-38 13.5t-52 26.5q-68 37 -107 37q-36 0 -62.5 -21t-55.5 -60l-36 33q27 48 69.5 75.5t91.5 27.5q13 0 26.5 -2.5t23 -5t23 -8.5t19.5 -9t19.5 -10.5t16.5 -9.5q3 -1 16.5 -8.5t16.5 -9t14 -6.5t15.5 -6t13.5 -4t17 -3.5
t17 -0.5q62 0 113 80zM564 257l35 -34q-60 -102 -149 -102q-23 0 -48 7.5t-37 13t-52 26.5q-66 37 -107 37q-37 0 -63 -21t-55 -61l-36 34q27 48 69.5 75.5t91.5 27.5q13 0 26.5 -2.5t23.5 -5t22.5 -8t19 -9t19 -10.5t16.5 -9t17.5 -9.5t18.5 -10t16.5 -7.5t19 -6.5t18 -3.5
t21.5 -2q35 0 60.5 19t52.5 61z" />
    <glyph glyph-name="notequal" unicode="&#x2260;" horiz-adv-x="654" 
d="M465 530l-52 -109h182v-56h-206l-77 -161h283v-56h-308l-63 -135l-46 22l54 113h-174v56h199l76 161h-275v56h299l62 131z" />
    <glyph glyph-name="lessequal" unicode="&#x2264;" horiz-adv-x="654" 
d="M593 89l-529 244v59l528 244v-65l-465 -206v-3l466 -208v-65zM595 -10h-537v56h537v-56z" />
    <glyph glyph-name="greaterequal" unicode="&#x2265;" horiz-adv-x="654" 
d="M65 636l528 -244v-59l-528 -244v65l465 208v2l-465 207v65zM593 -10h-534v56h534v-56z" />
    <glyph glyph-name="lozenge" unicode="&#x25ca;" horiz-adv-x="665" 
d="M603 349l-236 -402h-72l-234 402l235 401h72zM521 346l-168 289q-14 27 -21 47h-3q-8 -22 -22 -47l-165 -285l169 -290q17 -34 20 -46h3q6 18 21 46z" />
    <hkern u1="T" u2="&#x161;" k="19" />
    <hkern u1="T" u2="&#xfc;" k="37" />
    <hkern u1="T" u2="&#xf6;" k="37" />
    <hkern u1="T" u2="&#xf2;" k="37" />
    <hkern u1="T" u2="&#xee;" k="-15" />
    <hkern u1="T" u2="&#xed;" k="37" />
    <hkern u1="T" u2="&#xec;" k="-37" />
    <hkern u1="T" u2="&#xeb;" k="37" />
    <hkern u1="T" u2="&#xea;" k="56" />
    <hkern u1="T" u2="&#xe8;" k="56" />
    <hkern u1="T" u2="&#xe5;" k="37" />
    <hkern u1="T" u2="&#xe4;" k="19" />
    <hkern u1="T" u2="&#xe3;" k="37" />
    <hkern u1="T" u2="&#xe2;" k="37" />
    <hkern u1="T" u2="&#xe0;" k="37" />
    <hkern u1="V" u2="&#xf6;" k="19" />
    <hkern u1="V" u2="&#xf4;" k="28" />
    <hkern u1="V" u2="&#xeb;" k="19" />
    <hkern u1="V" u2="&#xea;" k="19" />
    <hkern u1="V" u2="&#xe8;" k="19" />
    <hkern u1="V" u2="&#xe5;" k="19" />
    <hkern u1="V" u2="&#xe4;" k="19" />
    <hkern u1="V" u2="&#xe3;" k="19" />
    <hkern u1="V" u2="&#xe2;" k="19" />
    <hkern u1="V" u2="&#xe0;" k="19" />
    <hkern u1="W" u2="&#xf6;" k="14" />
    <hkern u1="W" u2="&#xea;" k="14" />
    <hkern u1="W" u2="&#xe4;" k="14" />
    <hkern u1="Y" u2="&#xfc;" k="28" />
    <hkern u1="Y" u2="&#xf6;" k="41" />
    <hkern u1="&#x2018;" u2="&#x2018;" k="123" />
    <hkern u1="&#x2019;" u2="&#x2019;" k="123" />
    <hkern g1="A,Agrave,Aacute,Acircumflex,Atilde,Adieresis,Aring"
	g2="T"
	k="55" />
    <hkern g1="A,Agrave,Aacute,Acircumflex,Atilde,Adieresis,Aring"
	g2="v"
	k="18" />
    <hkern g1="A,Agrave,Aacute,Acircumflex,Atilde,Adieresis,Aring"
	g2="V"
	k="37" />
    <hkern g1="A,Agrave,Aacute,Acircumflex,Atilde,Adieresis,Aring"
	g2="w"
	k="18" />
    <hkern g1="A,Agrave,Aacute,Acircumflex,Atilde,Adieresis,Aring"
	g2="W"
	k="37" />
    <hkern g1="A,Agrave,Aacute,Acircumflex,Atilde,Adieresis,Aring"
	g2="y,yacute,ydieresis"
	k="18" />
    <hkern g1="A,Agrave,Aacute,Acircumflex,Atilde,Adieresis,Aring"
	g2="Y,Yacute,Ydieresis"
	k="37" />
    <hkern g1="A,Agrave,Aacute,Acircumflex,Atilde,Adieresis,Aring"
	g2="quoteright"
	k="92" />
    <hkern g1="F"
	g2="A,Agrave,Aacute,Acircumflex,Atilde,Adieresis,Aring,AE"
	k="37" />
    <hkern g1="F"
	g2="comma"
	k="111" />
    <hkern g1="F"
	g2="period"
	k="111" />
    <hkern g1="L,Lslash"
	g2="T"
	k="111" />
    <hkern g1="L,Lslash"
	g2="V"
	k="92" />
    <hkern g1="L,Lslash"
	g2="W"
	k="74" />
    <hkern g1="L,Lslash"
	g2="y,yacute,ydieresis"
	k="37" />
    <hkern g1="L,Lslash"
	g2="Y,Yacute,Ydieresis"
	k="111" />
    <hkern g1="L,Lslash"
	g2="quoteright"
	k="92" />
    <hkern g1="P"
	g2="A,Agrave,Aacute,Acircumflex,Atilde,Adieresis,Aring,AE"
	k="37" />
    <hkern g1="P"
	g2="comma"
	k="129" />
    <hkern g1="P"
	g2="period"
	k="129" />
    <hkern g1="r"
	g2="comma"
	k="74" />
    <hkern g1="r"
	g2="period"
	k="74" />
    <hkern g1="r"
	g2="hyphen"
	k="55" />
    <hkern g1="T"
	g2="w"
	k="92" />
    <hkern g1="T"
	g2="y,yacute,ydieresis"
	k="74" />
    <hkern g1="T"
	g2="A,Agrave,Aacute,Acircumflex,Atilde,Adieresis,Aring,AE"
	k="37" />
    <hkern g1="T"
	g2="comma"
	k="92" />
    <hkern g1="T"
	g2="period"
	k="92" />
    <hkern g1="T"
	g2="hyphen"
	k="92" />
    <hkern g1="T"
	g2="a,agrave,aacute,acircumflex,atilde,adieresis,aring,ae"
	k="74" />
    <hkern g1="T"
	g2="c,ccedilla"
	k="74" />
    <hkern g1="T"
	g2="e,egrave,eacute,ecircumflex,edieresis"
	k="74" />
    <hkern g1="T"
	g2="i,igrave,iacute,icircumflex,idieresis"
	k="74" />
    <hkern g1="T"
	g2="o,ograve,oacute,ocircumflex,otilde,odieresis,oslash,oe"
	k="74" />
    <hkern g1="T"
	g2="r"
	k="74" />
    <hkern g1="T"
	g2="s,scaron"
	k="74" />
    <hkern g1="T"
	g2="u,ugrave,uacute,ucircumflex,udieresis"
	k="74" />
    <hkern g1="T"
	g2="colon"
	k="92" />
    <hkern g1="T"
	g2="semicolon"
	k="92" />
    <hkern g1="v"
	g2="comma"
	k="55" />
    <hkern g1="v"
	g2="period"
	k="55" />
    <hkern g1="V"
	g2="y,yacute,ydieresis"
	k="18" />
    <hkern g1="V"
	g2="A,Agrave,Aacute,Acircumflex,Atilde,Adieresis,Aring,AE"
	k="37" />
    <hkern g1="V"
	g2="comma"
	k="111" />
    <hkern g1="V"
	g2="period"
	k="111" />
    <hkern g1="V"
	g2="hyphen"
	k="37" />
    <hkern g1="V"
	g2="a,agrave,aacute,acircumflex,atilde,adieresis,aring,ae"
	k="37" />
    <hkern g1="V"
	g2="e,egrave,eacute,ecircumflex,edieresis"
	k="37" />
    <hkern g1="V"
	g2="o,ograve,oacute,ocircumflex,otilde,odieresis,oslash,oe"
	k="37" />
    <hkern g1="V"
	g2="r"
	k="18" />
    <hkern g1="V"
	g2="u,ugrave,uacute,ucircumflex,udieresis"
	k="18" />
    <hkern g1="V"
	g2="colon"
	k="37" />
    <hkern g1="V"
	g2="semicolon"
	k="37" />
    <hkern g1="w"
	g2="comma"
	k="55" />
    <hkern g1="w"
	g2="period"
	k="55" />
    <hkern g1="W"
	g2="A,Agrave,Aacute,Acircumflex,Atilde,Adieresis,Aring,AE"
	k="18" />
    <hkern g1="W"
	g2="comma"
	k="55" />
    <hkern g1="W"
	g2="period"
	k="55" />
    <hkern g1="W"
	g2="hyphen"
	k="37" />
    <hkern g1="W"
	g2="a,agrave,aacute,acircumflex,atilde,adieresis,aring,ae"
	k="18" />
    <hkern g1="W"
	g2="e,egrave,eacute,ecircumflex,edieresis"
	k="18" />
    <hkern g1="W"
	g2="o,ograve,oacute,ocircumflex,otilde,odieresis,oslash,oe"
	k="18" />
    <hkern g1="W"
	g2="colon"
	k="18" />
    <hkern g1="W"
	g2="semicolon"
	k="18" />
    <hkern g1="y,yacute,ydieresis"
	g2="comma"
	k="74" />
    <hkern g1="y,yacute,ydieresis"
	g2="period"
	k="74" />
    <hkern g1="Y,Yacute,Ydieresis"
	g2="v"
	k="18" />
    <hkern g1="Y,Yacute,Ydieresis"
	g2="A,Agrave,Aacute,Acircumflex,Atilde,Adieresis,Aring,AE"
	k="55" />
    <hkern g1="Y,Yacute,Ydieresis"
	g2="comma"
	k="129" />
    <hkern g1="Y,Yacute,Ydieresis"
	g2="period"
	k="129" />
    <hkern g1="Y,Yacute,Ydieresis"
	g2="hyphen"
	k="92" />
    <hkern g1="Y,Yacute,Ydieresis"
	g2="a,agrave,aacute,acircumflex,atilde,adieresis,aring,ae"
	k="55" />
    <hkern g1="Y,Yacute,Ydieresis"
	g2="e,egrave,eacute,ecircumflex,edieresis"
	k="55" />
    <hkern g1="Y,Yacute,Ydieresis"
	g2="i,igrave,iacute,icircumflex,idieresis"
	k="18" />
    <hkern g1="Y,Yacute,Ydieresis"
	g2="o,ograve,oacute,ocircumflex,otilde,odieresis,oslash,oe"
	k="55" />
    <hkern g1="Y,Yacute,Ydieresis"
	g2="u,ugrave,uacute,ucircumflex,udieresis"
	k="37" />
    <hkern g1="Y,Yacute,Ydieresis"
	g2="colon"
	k="55" />
    <hkern g1="Y,Yacute,Ydieresis"
	g2="semicolon"
	k="55" />
    <hkern g1="Y,Yacute,Ydieresis"
	g2="p"
	k="37" />
    <hkern g1="Y,Yacute,Ydieresis"
	g2="q"
	k="55" />
    <hkern g1="quoteright"
	g2="s,scaron"
	k="37" />
    <hkern g1="quoteright"
	g2="t"
	k="18" />
  </font>
</defs></svg>
